%!PS-Adobe-2.0
%%Title: DoS_requests_Pc_20.eps
%%Creator: gnuplot 4.0 patchlevel 0
%%CreationDate: Sat Sep 20 16:38:34 2008
%%DocumentFonts: (atend)
%%BoundingBox: 150 50 554 626
%%Orientation: Landscape
%%Pages: (atend)
%%EndComments
/gnudict 256 dict def
gnudict begin
/Color false def
/Solid false def
/gnulinewidth 5.000 def
/userlinewidth gnulinewidth def
/vshift -46 def
/dl {10.0 mul} def
/hpt_ 31.5 def
/vpt_ 31.5 def
/hpt hpt_ def
/vpt vpt_ def
/Rounded false def
/M {moveto} bind def
/L {lineto} bind def
/R {rmoveto} bind def
/V {rlineto} bind def
/N {newpath moveto} bind def
/C {setrgbcolor} bind def
/f {rlineto fill} bind def
/vpt2 vpt 2 mul def
/hpt2 hpt 2 mul def
/Lshow { currentpoint stroke M
  0 vshift R show } def
/Rshow { currentpoint stroke M
  dup stringwidth pop neg vshift R show } def
/Cshow { currentpoint stroke M
  dup stringwidth pop -2 div vshift R show } def
/UP { dup vpt_ mul /vpt exch def hpt_ mul /hpt exch def
  /hpt2 hpt 2 mul def /vpt2 vpt 2 mul def } def
/DL { Color {setrgbcolor Solid {pop []} if 0 setdash }
 {pop pop pop 0 setgray Solid {pop []} if 0 setdash} ifelse } def
/BL { stroke userlinewidth 2 mul setlinewidth
      Rounded { 1 setlinejoin 1 setlinecap } if } def
/AL { stroke userlinewidth 2 div setlinewidth
      Rounded { 1 setlinejoin 1 setlinecap } if } def
/UL { dup gnulinewidth mul /userlinewidth exch def
      dup 1 lt {pop 1} if 10 mul /udl exch def } def
/PL { stroke userlinewidth setlinewidth
      Rounded { 1 setlinejoin 1 setlinecap } if } def
/LTw { PL [] 1 setgray } def
/LTb { BL [] 0 0 0 DL } def
/LTa { AL [1 udl mul 2 udl mul] 0 setdash 0 0 0 setrgbcolor } def
/LT0 { PL [] 1 0 0 DL } def
/LT1 { PL [4 dl 2 dl] 0 1 0 DL } def
/LT2 { PL [2 dl 3 dl] 0 0 1 DL } def
/LT3 { PL [1 dl 1.5 dl] 1 0 1 DL } def
/LT4 { PL [5 dl 2 dl 1 dl 2 dl] 0 1 1 DL } def
/LT5 { PL [4 dl 3 dl 1 dl 3 dl] 1 1 0 DL } def
/LT6 { PL [2 dl 2 dl 2 dl 4 dl] 0 0 0 DL } def
/LT7 { PL [2 dl 2 dl 2 dl 2 dl 2 dl 4 dl] 1 0.3 0 DL } def
/LT8 { PL [2 dl 2 dl 2 dl 2 dl 2 dl 2 dl 2 dl 4 dl] 0.5 0.5 0.5 DL } def
/Pnt { stroke [] 0 setdash
   gsave 1 setlinecap M 0 0 V stroke grestore } def
/Dia { stroke [] 0 setdash 2 copy vpt add M
  hpt neg vpt neg V hpt vpt neg V
  hpt vpt V hpt neg vpt V closepath stroke
  Pnt } def
/Pls { stroke [] 0 setdash vpt sub M 0 vpt2 V
  currentpoint stroke M
  hpt neg vpt neg R hpt2 0 V stroke
  } def
/Box { stroke [] 0 setdash 2 copy exch hpt sub exch vpt add M
  0 vpt2 neg V hpt2 0 V 0 vpt2 V
  hpt2 neg 0 V closepath stroke
  Pnt } def
/Crs { stroke [] 0 setdash exch hpt sub exch vpt add M
  hpt2 vpt2 neg V currentpoint stroke M
  hpt2 neg 0 R hpt2 vpt2 V stroke } def
/TriU { stroke [] 0 setdash 2 copy vpt 1.12 mul add M
  hpt neg vpt -1.62 mul V
  hpt 2 mul 0 V
  hpt neg vpt 1.62 mul V closepath stroke
  Pnt  } def
/Star { 2 copy Pls Crs } def
/BoxF { stroke [] 0 setdash exch hpt sub exch vpt add M
  0 vpt2 neg V  hpt2 0 V  0 vpt2 V
  hpt2 neg 0 V  closepath fill } def
/TriUF { stroke [] 0 setdash vpt 1.12 mul add M
  hpt neg vpt -1.62 mul V
  hpt 2 mul 0 V
  hpt neg vpt 1.62 mul V closepath fill } def
/TriD { stroke [] 0 setdash 2 copy vpt 1.12 mul sub M
  hpt neg vpt 1.62 mul V
  hpt 2 mul 0 V
  hpt neg vpt -1.62 mul V closepath stroke
  Pnt  } def
/TriDF { stroke [] 0 setdash vpt 1.12 mul sub M
  hpt neg vpt 1.62 mul V
  hpt 2 mul 0 V
  hpt neg vpt -1.62 mul V closepath fill} def
/DiaF { stroke [] 0 setdash vpt add M
  hpt neg vpt neg V hpt vpt neg V
  hpt vpt V hpt neg vpt V closepath fill } def
/Pent { stroke [] 0 setdash 2 copy gsave
  translate 0 hpt M 4 {72 rotate 0 hpt L} repeat
  closepath stroke grestore Pnt } def
/PentF { stroke [] 0 setdash gsave
  translate 0 hpt M 4 {72 rotate 0 hpt L} repeat
  closepath fill grestore } def
/Circle { stroke [] 0 setdash 2 copy
  hpt 0 360 arc stroke Pnt } def
/CircleF { stroke [] 0 setdash hpt 0 360 arc fill } def
/C0 { BL [] 0 setdash 2 copy moveto vpt 90 450  arc } bind def
/C1 { BL [] 0 setdash 2 copy        moveto
       2 copy  vpt 0 90 arc closepath fill
               vpt 0 360 arc closepath } bind def
/C2 { BL [] 0 setdash 2 copy moveto
       2 copy  vpt 90 180 arc closepath fill
               vpt 0 360 arc closepath } bind def
/C3 { BL [] 0 setdash 2 copy moveto
       2 copy  vpt 0 180 arc closepath fill
               vpt 0 360 arc closepath } bind def
/C4 { BL [] 0 setdash 2 copy moveto
       2 copy  vpt 180 270 arc closepath fill
               vpt 0 360 arc closepath } bind def
/C5 { BL [] 0 setdash 2 copy moveto
       2 copy  vpt 0 90 arc
       2 copy moveto
       2 copy  vpt 180 270 arc closepath fill
               vpt 0 360 arc } bind def
/C6 { BL [] 0 setdash 2 copy moveto
      2 copy  vpt 90 270 arc closepath fill
              vpt 0 360 arc closepath } bind def
/C7 { BL [] 0 setdash 2 copy moveto
      2 copy  vpt 0 270 arc closepath fill
              vpt 0 360 arc closepath } bind def
/C8 { BL [] 0 setdash 2 copy moveto
      2 copy vpt 270 360 arc closepath fill
              vpt 0 360 arc closepath } bind def
/C9 { BL [] 0 setdash 2 copy moveto
      2 copy  vpt 270 450 arc closepath fill
              vpt 0 360 arc closepath } bind def
/C10 { BL [] 0 setdash 2 copy 2 copy moveto vpt 270 360 arc closepath fill
       2 copy moveto
       2 copy vpt 90 180 arc closepath fill
               vpt 0 360 arc closepath } bind def
/C11 { BL [] 0 setdash 2 copy moveto
       2 copy  vpt 0 180 arc closepath fill
       2 copy moveto
       2 copy  vpt 270 360 arc closepath fill
               vpt 0 360 arc closepath } bind def
/C12 { BL [] 0 setdash 2 copy moveto
       2 copy  vpt 180 360 arc closepath fill
               vpt 0 360 arc closepath } bind def
/C13 { BL [] 0 setdash  2 copy moveto
       2 copy  vpt 0 90 arc closepath fill
       2 copy moveto
       2 copy  vpt 180 360 arc closepath fill
               vpt 0 360 arc closepath } bind def
/C14 { BL [] 0 setdash 2 copy moveto
       2 copy  vpt 90 360 arc closepath fill
               vpt 0 360 arc } bind def
/C15 { BL [] 0 setdash 2 copy vpt 0 360 arc closepath fill
               vpt 0 360 arc closepath } bind def
/Rec   { newpath 4 2 roll moveto 1 index 0 rlineto 0 exch rlineto
       neg 0 rlineto closepath } bind def
/Square { dup Rec } bind def
/Bsquare { vpt sub exch vpt sub exch vpt2 Square } bind def
/S0 { BL [] 0 setdash 2 copy moveto 0 vpt rlineto BL Bsquare } bind def
/S1 { BL [] 0 setdash 2 copy vpt Square fill Bsquare } bind def
/S2 { BL [] 0 setdash 2 copy exch vpt sub exch vpt Square fill Bsquare } bind def
/S3 { BL [] 0 setdash 2 copy exch vpt sub exch vpt2 vpt Rec fill Bsquare } bind def
/S4 { BL [] 0 setdash 2 copy exch vpt sub exch vpt sub vpt Square fill Bsquare } bind def
/S5 { BL [] 0 setdash 2 copy 2 copy vpt Square fill
       exch vpt sub exch vpt sub vpt Square fill Bsquare } bind def
/S6 { BL [] 0 setdash 2 copy exch vpt sub exch vpt sub vpt vpt2 Rec fill Bsquare } bind def
/S7 { BL [] 0 setdash 2 copy exch vpt sub exch vpt sub vpt vpt2 Rec fill
       2 copy vpt Square fill
       Bsquare } bind def
/S8 { BL [] 0 setdash 2 copy vpt sub vpt Square fill Bsquare } bind def
/S9 { BL [] 0 setdash 2 copy vpt sub vpt vpt2 Rec fill Bsquare } bind def
/S10 { BL [] 0 setdash 2 copy vpt sub vpt Square fill 2 copy exch vpt sub exch vpt Square fill
       Bsquare } bind def
/S11 { BL [] 0 setdash 2 copy vpt sub vpt Square fill 2 copy exch vpt sub exch vpt2 vpt Rec fill
       Bsquare } bind def
/S12 { BL [] 0 setdash 2 copy exch vpt sub exch vpt sub vpt2 vpt Rec fill Bsquare } bind def
/S13 { BL [] 0 setdash 2 copy exch vpt sub exch vpt sub vpt2 vpt Rec fill
       2 copy vpt Square fill Bsquare } bind def
/S14 { BL [] 0 setdash 2 copy exch vpt sub exch vpt sub vpt2 vpt Rec fill
       2 copy exch vpt sub exch vpt Square fill Bsquare } bind def
/S15 { BL [] 0 setdash 2 copy Bsquare fill Bsquare } bind def
/D0 { gsave translate 45 rotate 0 0 S0 stroke grestore } bind def
/D1 { gsave translate 45 rotate 0 0 S1 stroke grestore } bind def
/D2 { gsave translate 45 rotate 0 0 S2 stroke grestore } bind def
/D3 { gsave translate 45 rotate 0 0 S3 stroke grestore } bind def
/D4 { gsave translate 45 rotate 0 0 S4 stroke grestore } bind def
/D5 { gsave translate 45 rotate 0 0 S5 stroke grestore } bind def
/D6 { gsave translate 45 rotate 0 0 S6 stroke grestore } bind def
/D7 { gsave translate 45 rotate 0 0 S7 stroke grestore } bind def
/D8 { gsave translate 45 rotate 0 0 S8 stroke grestore } bind def
/D9 { gsave translate 45 rotate 0 0 S9 stroke grestore } bind def
/D10 { gsave translate 45 rotate 0 0 S10 stroke grestore } bind def
/D11 { gsave translate 45 rotate 0 0 S11 stroke grestore } bind def
/D12 { gsave translate 45 rotate 0 0 S12 stroke grestore } bind def
/D13 { gsave translate 45 rotate 0 0 S13 stroke grestore } bind def
/D14 { gsave translate 45 rotate 0 0 S14 stroke grestore } bind def
/D15 { gsave translate 45 rotate 0 0 S15 stroke grestore } bind def
/DiaE { stroke [] 0 setdash vpt add M
  hpt neg vpt neg V hpt vpt neg V
  hpt vpt V hpt neg vpt V closepath stroke } def
/BoxE { stroke [] 0 setdash exch hpt sub exch vpt add M
  0 vpt2 neg V hpt2 0 V 0 vpt2 V
  hpt2 neg 0 V closepath stroke } def
/TriUE { stroke [] 0 setdash vpt 1.12 mul add M
  hpt neg vpt -1.62 mul V
  hpt 2 mul 0 V
  hpt neg vpt 1.62 mul V closepath stroke } def
/TriDE { stroke [] 0 setdash vpt 1.12 mul sub M
  hpt neg vpt 1.62 mul V
  hpt 2 mul 0 V
  hpt neg vpt -1.62 mul V closepath stroke } def
/PentE { stroke [] 0 setdash gsave
  translate 0 hpt M 4 {72 rotate 0 hpt L} repeat
  closepath stroke grestore } def
/CircE { stroke [] 0 setdash 
  hpt 0 360 arc stroke } def
/Opaque { gsave closepath 1 setgray fill grestore 0 setgray closepath } def
/DiaW { stroke [] 0 setdash vpt add M
  hpt neg vpt neg V hpt vpt neg V
  hpt vpt V hpt neg vpt V Opaque stroke } def
/BoxW { stroke [] 0 setdash exch hpt sub exch vpt add M
  0 vpt2 neg V hpt2 0 V 0 vpt2 V
  hpt2 neg 0 V Opaque stroke } def
/TriUW { stroke [] 0 setdash vpt 1.12 mul add M
  hpt neg vpt -1.62 mul V
  hpt 2 mul 0 V
  hpt neg vpt 1.62 mul V Opaque stroke } def
/TriDW { stroke [] 0 setdash vpt 1.12 mul sub M
  hpt neg vpt 1.62 mul V
  hpt 2 mul 0 V
  hpt neg vpt -1.62 mul V Opaque stroke } def
/PentW { stroke [] 0 setdash gsave
  translate 0 hpt M 4 {72 rotate 0 hpt L} repeat
  Opaque stroke grestore } def
/CircW { stroke [] 0 setdash 
  hpt 0 360 arc Opaque stroke } def
/BoxFill { gsave Rec 1 setgray fill grestore } def
/BoxColFill {
  gsave Rec
  /Fillden exch def
  currentrgbcolor
  /ColB exch def /ColG exch def /ColR exch def
  /ColR ColR Fillden mul Fillden sub 1 add def
  /ColG ColG Fillden mul Fillden sub 1 add def
  /ColB ColB Fillden mul Fillden sub 1 add def
  ColR ColG ColB setrgbcolor
  fill grestore } def
%
% PostScript Level 1 Pattern Fill routine
% Usage: x y w h s a XX PatternFill
%	x,y = lower left corner of box to be filled
%	w,h = width and height of box
%	  a = angle in degrees between lines and x-axis
%	 XX = 0/1 for no/yes cross-hatch
%
/PatternFill { gsave /PFa [ 9 2 roll ] def
    PFa 0 get PFa 2 get 2 div add PFa 1 get PFa 3 get 2 div add translate
    PFa 2 get -2 div PFa 3 get -2 div PFa 2 get PFa 3 get Rec
    gsave 1 setgray fill grestore clip
    currentlinewidth 0.5 mul setlinewidth
    /PFs PFa 2 get dup mul PFa 3 get dup mul add sqrt def
    0 0 M PFa 5 get rotate PFs -2 div dup translate
	0 1 PFs PFa 4 get div 1 add floor cvi
	{ PFa 4 get mul 0 M 0 PFs V } for
    0 PFa 6 get ne {
	0 1 PFs PFa 4 get div 1 add floor cvi
	{ PFa 4 get mul 0 2 1 roll M PFs 0 V } for
    } if
    stroke grestore } def
%
/Symbol-Oblique /Symbol findfont [1 0 .167 1 0 0] makefont
dup length dict begin {1 index /FID eq {pop pop} {def} ifelse} forall
currentdict end definefont pop
/MFshow {
   { dup 5 get 3 ge
     { 5 get 3 eq {gsave} {grestore} ifelse }
     {dup dup 0 get findfont exch 1 get scalefont setfont
     [ currentpoint ] exch dup 2 get 0 exch R dup 5 get 2 ne {dup dup 6
     get exch 4 get {show} {stringwidth pop 0 R} ifelse }if dup 5 get 0 eq
     {dup 3 get {2 get neg 0 exch R pop} {pop aload pop M} ifelse} {dup 5
     get 1 eq {dup 2 get exch dup 3 get exch 6 get stringwidth pop -2 div
     dup 0 R} {dup 6 get stringwidth pop -2 div 0 R 6 get
     show 2 index {aload pop M neg 3 -1 roll neg R pop pop} {pop pop pop
     pop aload pop M} ifelse }ifelse }ifelse }
     ifelse }
   forall} bind def
/MFwidth {0 exch {dup 3 get{dup dup 0 get findfont exch 1 get scalefont
     setfont 6 get stringwidth pop add} {pop} ifelse} forall} bind def
/MLshow { currentpoint stroke M
  0 exch R MFshow } bind def
/MRshow { currentpoint stroke M
  exch dup MFwidth neg 3 -1 roll R MFshow } def
/MCshow { currentpoint stroke M
  exch dup MFwidth -2 div 3 -1 roll R MFshow } def
end
%%EndProlog
%%Page: 1 1
gnudict begin
gsave
50 50 translate
0.100 0.100 scale
90 rotate
0 -5040 translate
0 setgray
newpath
(Helvetica) findfont 140 scalefont setfont
1.000 UL
LTb
714 420 M
63 0 V
4745 0 R
-63 0 V
stroke
630 420 M
gsave 0 setgray
[ [(Helvetica) 140.0 0.0 true true 0 ( 0)]
] -46.7 MRshow
grestore
1.000 UL
LTb
714 545 M
31 0 V
4777 0 R
-31 0 V
714 670 M
31 0 V
4777 0 R
-31 0 V
714 796 M
31 0 V
4777 0 R
-31 0 V
714 921 M
31 0 V
4777 0 R
-31 0 V
714 1046 M
31 0 V
4777 0 R
-31 0 V
-4777 0 R
63 0 V
4745 0 R
-63 0 V
stroke
630 1046 M
gsave 0 setgray
[ [(Helvetica) 140.0 0.0 true true 0 ( 0.2)]
] -46.7 MRshow
grestore
1.000 UL
LTb
714 1171 M
31 0 V
4777 0 R
-31 0 V
714 1297 M
31 0 V
4777 0 R
-31 0 V
714 1422 M
31 0 V
4777 0 R
-31 0 V
714 1547 M
31 0 V
4777 0 R
-31 0 V
714 1672 M
31 0 V
4777 0 R
-31 0 V
-4777 0 R
63 0 V
4745 0 R
-63 0 V
stroke
630 1672 M
gsave 0 setgray
[ [(Helvetica) 140.0 0.0 true true 0 ( 0.4)]
] -46.7 MRshow
grestore
1.000 UL
LTb
714 1798 M
31 0 V
4777 0 R
-31 0 V
714 1923 M
31 0 V
4777 0 R
-31 0 V
714 2048 M
31 0 V
4777 0 R
-31 0 V
714 2173 M
31 0 V
4777 0 R
-31 0 V
714 2299 M
31 0 V
4777 0 R
-31 0 V
-4777 0 R
63 0 V
4745 0 R
-63 0 V
stroke
630 2299 M
gsave 0 setgray
[ [(Helvetica) 140.0 0.0 true true 0 ( 0.6)]
] -46.7 MRshow
grestore
1.000 UL
LTb
714 2424 M
31 0 V
4777 0 R
-31 0 V
714 2549 M
31 0 V
4777 0 R
-31 0 V
714 2674 M
31 0 V
4777 0 R
-31 0 V
714 2799 M
31 0 V
4777 0 R
-31 0 V
714 2925 M
31 0 V
4777 0 R
-31 0 V
-4777 0 R
63 0 V
4745 0 R
-63 0 V
stroke
630 2925 M
gsave 0 setgray
[ [(Helvetica) 140.0 0.0 true true 0 ( 0.8)]
] -46.7 MRshow
grestore
1.000 UL
LTb
714 3050 M
31 0 V
4777 0 R
-31 0 V
714 3175 M
31 0 V
4777 0 R
-31 0 V
714 3300 M
31 0 V
4777 0 R
-31 0 V
714 3426 M
31 0 V
4777 0 R
-31 0 V
714 3551 M
31 0 V
4777 0 R
-31 0 V
-4777 0 R
63 0 V
4745 0 R
-63 0 V
stroke
630 3551 M
gsave 0 setgray
[ [(Helvetica) 140.0 0.0 true true 0 ( 1)]
] -46.7 MRshow
grestore
1.000 UL
LTb
714 3676 M
31 0 V
4777 0 R
-31 0 V
714 3801 M
31 0 V
4777 0 R
-31 0 V
714 420 M
0 63 V
0 3381 R
0 -63 V
stroke
714 280 M
gsave 0 setgray
[ [(Helvetica) 140.0 0.0 true true 0 ( 0)]
] -46.7 MCshow
grestore
1.000 UL
LTb
1248 420 M
0 63 V
0 3381 R
0 -63 V
stroke
1248 280 M
gsave 0 setgray
[ [(Helvetica) 140.0 0.0 true true 0 ( 1)]
] -46.7 MCshow
grestore
1.000 UL
LTb
1782 420 M
0 63 V
0 3381 R
0 -63 V
stroke
1782 280 M
gsave 0 setgray
[ [(Helvetica) 140.0 0.0 true true 0 ( 2)]
] -46.7 MCshow
grestore
1.000 UL
LTb
2317 420 M
0 63 V
0 3381 R
0 -63 V
stroke
2317 280 M
gsave 0 setgray
[ [(Helvetica) 140.0 0.0 true true 0 ( 3)]
] -46.7 MCshow
grestore
1.000 UL
LTb
2851 420 M
0 63 V
0 3381 R
0 -63 V
stroke
2851 280 M
gsave 0 setgray
[ [(Helvetica) 140.0 0.0 true true 0 ( 4)]
] -46.7 MCshow
grestore
1.000 UL
LTb
3385 420 M
0 63 V
0 3381 R
0 -63 V
stroke
3385 280 M
gsave 0 setgray
[ [(Helvetica) 140.0 0.0 true true 0 ( 5)]
] -46.7 MCshow
grestore
1.000 UL
LTb
3919 420 M
0 63 V
0 3381 R
0 -63 V
stroke
3919 280 M
gsave 0 setgray
[ [(Helvetica) 140.0 0.0 true true 0 ( 6)]
] -46.7 MCshow
grestore
1.000 UL
LTb
4454 420 M
0 63 V
0 3381 R
0 -63 V
stroke
4454 280 M
gsave 0 setgray
[ [(Helvetica) 140.0 0.0 true true 0 ( 7)]
] -46.7 MCshow
grestore
1.000 UL
LTb
4988 420 M
0 63 V
0 3381 R
0 -63 V
stroke
4988 280 M
gsave 0 setgray
[ [(Helvetica) 140.0 0.0 true true 0 ( 8)]
] -46.7 MCshow
grestore
1.000 UL
LTb
5522 420 M
0 63 V
0 3381 R
0 -63 V
stroke
5522 280 M
gsave 0 setgray
[ [(Helvetica) 140.0 0.0 true true 0 ( 9)]
] -46.7 MCshow
grestore
1.000 UL
LTb
1.000 UL
LTb
714 420 M
4808 0 V
0 3444 V
-4808 0 V
714 420 L
LTb
140 2142 M
gsave 0 setgray
currentpoint gsave translate 90 rotate 0 0 moveto
[ [(Helvetica) 140.0 0.0 true true 0 (P)]
[(Symbol) 112.0 -42.0 true true 0 (g|T)]
] -32.7 MCshow
grestore
grestore
LTb
3118 70 M
gsave 0 setgray
[ [(Symbol) 140.0 0.0 true true 0 (g)]
] -46.7 MCshow
grestore
1.000 UP
1.000 UP
1.000 UL
LT1
LTb
4871 3731 M
gsave 0 setgray
[ [(Helvetica) 140.0 0.0 true true 0 (T=1)]
] -46.7 MRshow
grestore
LT1
4955 3731 M
399 0 V
714 3551 M
1248 1948 L
1782 420 L
535 0 V
534 0 V
534 0 V
534 0 V
535 0 V
534 0 V
714 3551 Crs
1248 1948 Crs
1782 420 Crs
2317 420 Crs
2851 420 Crs
3385 420 Crs
3919 420 Crs
4454 420 Crs
4988 420 Crs
5154 3731 Crs
1.000 UP
1.000 UL
LT2
LTb
4871 3591 M
gsave 0 setgray
[ [(Helvetica) 140.0 0.0 true true 0 (T=2)]
] -46.7 MRshow
grestore
LT2
4955 3591 M
399 0 V
714 3551 M
534 -821 V
1782 1166 L
2317 420 L
534 0 V
534 0 V
534 0 V
535 0 V
534 0 V
714 3551 Star
1248 2730 Star
1782 1166 Star
2317 420 Star
2851 420 Star
3385 420 Star
3919 420 Star
4454 420 Star
4988 420 Star
5154 3591 Star
1.000 UP
1.000 UL
LT3
LTb
4871 3451 M
gsave 0 setgray
[ [(Helvetica) 140.0 0.0 true true 0 (T=3)]
] -46.7 MRshow
grestore
LT3
4955 3451 M
399 0 V
714 3551 M
534 -420 V
1782 1929 L
2317 784 L
2851 420 L
534 0 V
534 0 V
535 0 V
534 0 V
714 3551 Box
1248 3131 Box
1782 1929 Box
2317 784 Box
2851 420 Box
3385 420 Box
3919 420 Box
4454 420 Box
4988 420 Box
5154 3451 Box
1.000 UP
1.000 UL
LT4
LTb
4871 3311 M
gsave 0 setgray
[ [(Helvetica) 140.0 0.0 true true 0 (T=4)]
] -46.7 MRshow
grestore
LT4
4955 3311 M
399 0 V
714 3551 M
534 -215 V
534 -821 V
2317 1343 L
2851 598 L
3385 420 L
534 0 V
535 0 V
534 0 V
714 3551 BoxF
1248 3336 BoxF
1782 2515 BoxF
2317 1343 BoxF
2851 598 BoxF
3385 420 BoxF
3919 420 BoxF
4454 420 BoxF
4988 420 BoxF
5154 3311 BoxF
1.000 UP
1.000 UL
LT5
LTb
4871 3171 M
gsave 0 setgray
[ [(Helvetica) 140.0 0.0 true true 0 (T=5)]
] -46.7 MRshow
grestore
LT5
4955 3171 M
399 0 V
714 3551 M
534 -110 V
534 -525 V
2317 1915 L
2851 961 L
3385 507 L
534 -87 V
535 0 V
534 0 V
714 3551 Circle
1248 3441 Circle
1782 2916 Circle
2317 1915 Circle
2851 961 Circle
3385 507 Circle
3919 420 Circle
4454 420 Circle
4988 420 Circle
5154 3171 Circle
1.000 UP
1.000 UL
LT6
LTb
4871 3031 M
gsave 0 setgray
[ [(Helvetica) 140.0 0.0 true true 0 (T=6)]
] -46.7 MRshow
grestore
LT6
4955 3031 M
399 0 V
714 3551 M
534 -56 V
534 -323 V
535 -769 V
534 -976 V
3385 728 L
3919 462 L
535 -42 V
534 0 V
714 3551 CircleF
1248 3495 CircleF
1782 3172 CircleF
2317 2403 CircleF
2851 1427 CircleF
3385 728 CircleF
3919 462 CircleF
4454 420 CircleF
4988 420 CircleF
5154 3031 CircleF
1.000 UP
1.000 UL
LT7
LTb
4871 2891 M
gsave 0 setgray
[ [(Helvetica) 140.0 0.0 true true 0 (T=7)]
] -46.7 MRshow
grestore
LT7
4955 2891 M
399 0 V
714 3551 M
534 -29 V
534 -193 V
535 -551 V
534 -875 V
534 -834 V
3919 592 L
4454 441 L
534 -21 V
714 3551 TriU
1248 3522 TriU
1782 3329 TriU
2317 2778 TriU
2851 1903 TriU
3385 1069 TriU
3919 592 TriU
4454 441 TriU
4988 420 TriU
5154 2891 TriU
1.000 UP
1.000 UL
LT8
LTb
4871 2751 M
gsave 0 setgray
[ [(Helvetica) 140.0 0.0 true true 0 (T=8)]
] -46.7 MRshow
grestore
LT8
4955 2751 M
399 0 V
714 3551 M
534 -215 V
534 -821 V
2317 1343 L
2851 598 L
3385 420 L
534 0 V
535 0 V
534 0 V
714 3551 TriUF
1248 3336 TriUF
1782 2515 TriUF
2317 1343 TriUF
2851 598 TriUF
3385 420 TriUF
3919 420 TriUF
4454 420 TriUF
4988 420 TriUF
5154 2751 TriUF
1.000 UL
LTb
714 420 M
4808 0 V
0 3444 V
-4808 0 V
714 420 L
1.000 UP
stroke
grestore
end
showpage
%%Trailer
%%DocumentFonts: Symbol Helvetica
%%Pages: 1
