%!PS-Adobe-2.0
%%Title: confidentiality_lantency_multihop.eps
%%Creator: gnuplot 4.0 patchlevel 0
%%CreationDate: Wed Dec 31 14:59:24 2008
%%DocumentFonts: (atend)
%%BoundingBox: 150 50 554 626
%%Orientation: Landscape
%%Pages: (atend)
%%EndComments
/gnudict 256 dict def
gnudict begin
/Color false def
/Solid false def
/gnulinewidth 5.000 def
/userlinewidth gnulinewidth def
/vshift -46 def
/dl {10.0 mul} def
/hpt_ 31.5 def
/vpt_ 31.5 def
/hpt hpt_ def
/vpt vpt_ def
/Rounded false def
/M {moveto} bind def
/L {lineto} bind def
/R {rmoveto} bind def
/V {rlineto} bind def
/N {newpath moveto} bind def
/C {setrgbcolor} bind def
/f {rlineto fill} bind def
/vpt2 vpt 2 mul def
/hpt2 hpt 2 mul def
/Lshow { currentpoint stroke M
  0 vshift R show } def
/Rshow { currentpoint stroke M
  dup stringwidth pop neg vshift R show } def
/Cshow { currentpoint stroke M
  dup stringwidth pop -2 div vshift R show } def
/UP { dup vpt_ mul /vpt exch def hpt_ mul /hpt exch def
  /hpt2 hpt 2 mul def /vpt2 vpt 2 mul def } def
/DL { Color {setrgbcolor Solid {pop []} if 0 setdash }
 {pop pop pop 0 setgray Solid {pop []} if 0 setdash} ifelse } def
/BL { stroke userlinewidth 2 mul setlinewidth
      Rounded { 1 setlinejoin 1 setlinecap } if } def
/AL { stroke userlinewidth 2 div setlinewidth
      Rounded { 1 setlinejoin 1 setlinecap } if } def
/UL { dup gnulinewidth mul /userlinewidth exch def
      dup 1 lt {pop 1} if 10 mul /udl exch def } def
/PL { stroke userlinewidth setlinewidth
      Rounded { 1 setlinejoin 1 setlinecap } if } def
/LTw { PL [] 1 setgray } def
/LTb { BL [] 0 0 0 DL } def
/LTa { AL [1 udl mul 2 udl mul] 0 setdash 0 0 0 setrgbcolor } def
/LT0 { PL [] 1 0 0 DL } def
/LT1 { PL [4 dl 2 dl] 0 1 0 DL } def
/LT2 { PL [2 dl 3 dl] 0 0 1 DL } def
/LT3 { PL [1 dl 1.5 dl] 1 0 1 DL } def
/LT4 { PL [5 dl 2 dl 1 dl 2 dl] 0 1 1 DL } def
/LT5 { PL [4 dl 3 dl 1 dl 3 dl] 1 1 0 DL } def
/LT6 { PL [2 dl 2 dl 2 dl 4 dl] 0 0 0 DL } def
/LT7 { PL [2 dl 2 dl 2 dl 2 dl 2 dl 4 dl] 1 0.3 0 DL } def
/LT8 { PL [2 dl 2 dl 2 dl 2 dl 2 dl 2 dl 2 dl 4 dl] 0.5 0.5 0.5 DL } def
/Pnt { stroke [] 0 setdash
   gsave 1 setlinecap M 0 0 V stroke grestore } def
/Dia { stroke [] 0 setdash 2 copy vpt add M
  hpt neg vpt neg V hpt vpt neg V
  hpt vpt V hpt neg vpt V closepath stroke
  Pnt } def
/Pls { stroke [] 0 setdash vpt sub M 0 vpt2 V
  currentpoint stroke M
  hpt neg vpt neg R hpt2 0 V stroke
  } def
/Box { stroke [] 0 setdash 2 copy exch hpt sub exch vpt add M
  0 vpt2 neg V hpt2 0 V 0 vpt2 V
  hpt2 neg 0 V closepath stroke
  Pnt } def
/Crs { stroke [] 0 setdash exch hpt sub exch vpt add M
  hpt2 vpt2 neg V currentpoint stroke M
  hpt2 neg 0 R hpt2 vpt2 V stroke } def
/TriU { stroke [] 0 setdash 2 copy vpt 1.12 mul add M
  hpt neg vpt -1.62 mul V
  hpt 2 mul 0 V
  hpt neg vpt 1.62 mul V closepath stroke
  Pnt  } def
/Star { 2 copy Pls Crs } def
/BoxF { stroke [] 0 setdash exch hpt sub exch vpt add M
  0 vpt2 neg V  hpt2 0 V  0 vpt2 V
  hpt2 neg 0 V  closepath fill } def
/TriUF { stroke [] 0 setdash vpt 1.12 mul add M
  hpt neg vpt -1.62 mul V
  hpt 2 mul 0 V
  hpt neg vpt 1.62 mul V closepath fill } def
/TriD { stroke [] 0 setdash 2 copy vpt 1.12 mul sub M
  hpt neg vpt 1.62 mul V
  hpt 2 mul 0 V
  hpt neg vpt -1.62 mul V closepath stroke
  Pnt  } def
/TriDF { stroke [] 0 setdash vpt 1.12 mul sub M
  hpt neg vpt 1.62 mul V
  hpt 2 mul 0 V
  hpt neg vpt -1.62 mul V closepath fill} def
/DiaF { stroke [] 0 setdash vpt add M
  hpt neg vpt neg V hpt vpt neg V
  hpt vpt V hpt neg vpt V closepath fill } def
/Pent { stroke [] 0 setdash 2 copy gsave
  translate 0 hpt M 4 {72 rotate 0 hpt L} repeat
  closepath stroke grestore Pnt } def
/PentF { stroke [] 0 setdash gsave
  translate 0 hpt M 4 {72 rotate 0 hpt L} repeat
  closepath fill grestore } def
/Circle { stroke [] 0 setdash 2 copy
  hpt 0 360 arc stroke Pnt } def
/CircleF { stroke [] 0 setdash hpt 0 360 arc fill } def
/C0 { BL [] 0 setdash 2 copy moveto vpt 90 450  arc } bind def
/C1 { BL [] 0 setdash 2 copy        moveto
       2 copy  vpt 0 90 arc closepath fill
               vpt 0 360 arc closepath } bind def
/C2 { BL [] 0 setdash 2 copy moveto
       2 copy  vpt 90 180 arc closepath fill
               vpt 0 360 arc closepath } bind def
/C3 { BL [] 0 setdash 2 copy moveto
       2 copy  vpt 0 180 arc closepath fill
               vpt 0 360 arc closepath } bind def
/C4 { BL [] 0 setdash 2 copy moveto
       2 copy  vpt 180 270 arc closepath fill
               vpt 0 360 arc closepath } bind def
/C5 { BL [] 0 setdash 2 copy moveto
       2 copy  vpt 0 90 arc
       2 copy moveto
       2 copy  vpt 180 270 arc closepath fill
               vpt 0 360 arc } bind def
/C6 { BL [] 0 setdash 2 copy moveto
      2 copy  vpt 90 270 arc closepath fill
              vpt 0 360 arc closepath } bind def
/C7 { BL [] 0 setdash 2 copy moveto
      2 copy  vpt 0 270 arc closepath fill
              vpt 0 360 arc closepath } bind def
/C8 { BL [] 0 setdash 2 copy moveto
      2 copy vpt 270 360 arc closepath fill
              vpt 0 360 arc closepath } bind def
/C9 { BL [] 0 setdash 2 copy moveto
      2 copy  vpt 270 450 arc closepath fill
              vpt 0 360 arc closepath } bind def
/C10 { BL [] 0 setdash 2 copy 2 copy moveto vpt 270 360 arc closepath fill
       2 copy moveto
       2 copy vpt 90 180 arc closepath fill
               vpt 0 360 arc closepath } bind def
/C11 { BL [] 0 setdash 2 copy moveto
       2 copy  vpt 0 180 arc closepath fill
       2 copy moveto
       2 copy  vpt 270 360 arc closepath fill
               vpt 0 360 arc closepath } bind def
/C12 { BL [] 0 setdash 2 copy moveto
       2 copy  vpt 180 360 arc closepath fill
               vpt 0 360 arc closepath } bind def
/C13 { BL [] 0 setdash  2 copy moveto
       2 copy  vpt 0 90 arc closepath fill
       2 copy moveto
       2 copy  vpt 180 360 arc closepath fill
               vpt 0 360 arc closepath } bind def
/C14 { BL [] 0 setdash 2 copy moveto
       2 copy  vpt 90 360 arc closepath fill
               vpt 0 360 arc } bind def
/C15 { BL [] 0 setdash 2 copy vpt 0 360 arc closepath fill
               vpt 0 360 arc closepath } bind def
/Rec   { newpath 4 2 roll moveto 1 index 0 rlineto 0 exch rlineto
       neg 0 rlineto closepath } bind def
/Square { dup Rec } bind def
/Bsquare { vpt sub exch vpt sub exch vpt2 Square } bind def
/S0 { BL [] 0 setdash 2 copy moveto 0 vpt rlineto BL Bsquare } bind def
/S1 { BL [] 0 setdash 2 copy vpt Square fill Bsquare } bind def
/S2 { BL [] 0 setdash 2 copy exch vpt sub exch vpt Square fill Bsquare } bind def
/S3 { BL [] 0 setdash 2 copy exch vpt sub exch vpt2 vpt Rec fill Bsquare } bind def
/S4 { BL [] 0 setdash 2 copy exch vpt sub exch vpt sub vpt Square fill Bsquare } bind def
/S5 { BL [] 0 setdash 2 copy 2 copy vpt Square fill
       exch vpt sub exch vpt sub vpt Square fill Bsquare } bind def
/S6 { BL [] 0 setdash 2 copy exch vpt sub exch vpt sub vpt vpt2 Rec fill Bsquare } bind def
/S7 { BL [] 0 setdash 2 copy exch vpt sub exch vpt sub vpt vpt2 Rec fill
       2 copy vpt Square fill
       Bsquare } bind def
/S8 { BL [] 0 setdash 2 copy vpt sub vpt Square fill Bsquare } bind def
/S9 { BL [] 0 setdash 2 copy vpt sub vpt vpt2 Rec fill Bsquare } bind def
/S10 { BL [] 0 setdash 2 copy vpt sub vpt Square fill 2 copy exch vpt sub exch vpt Square fill
       Bsquare } bind def
/S11 { BL [] 0 setdash 2 copy vpt sub vpt Square fill 2 copy exch vpt sub exch vpt2 vpt Rec fill
       Bsquare } bind def
/S12 { BL [] 0 setdash 2 copy exch vpt sub exch vpt sub vpt2 vpt Rec fill Bsquare } bind def
/S13 { BL [] 0 setdash 2 copy exch vpt sub exch vpt sub vpt2 vpt Rec fill
       2 copy vpt Square fill Bsquare } bind def
/S14 { BL [] 0 setdash 2 copy exch vpt sub exch vpt sub vpt2 vpt Rec fill
       2 copy exch vpt sub exch vpt Square fill Bsquare } bind def
/S15 { BL [] 0 setdash 2 copy Bsquare fill Bsquare } bind def
/D0 { gsave translate 45 rotate 0 0 S0 stroke grestore } bind def
/D1 { gsave translate 45 rotate 0 0 S1 stroke grestore } bind def
/D2 { gsave translate 45 rotate 0 0 S2 stroke grestore } bind def
/D3 { gsave translate 45 rotate 0 0 S3 stroke grestore } bind def
/D4 { gsave translate 45 rotate 0 0 S4 stroke grestore } bind def
/D5 { gsave translate 45 rotate 0 0 S5 stroke grestore } bind def
/D6 { gsave translate 45 rotate 0 0 S6 stroke grestore } bind def
/D7 { gsave translate 45 rotate 0 0 S7 stroke grestore } bind def
/D8 { gsave translate 45 rotate 0 0 S8 stroke grestore } bind def
/D9 { gsave translate 45 rotate 0 0 S9 stroke grestore } bind def
/D10 { gsave translate 45 rotate 0 0 S10 stroke grestore } bind def
/D11 { gsave translate 45 rotate 0 0 S11 stroke grestore } bind def
/D12 { gsave translate 45 rotate 0 0 S12 stroke grestore } bind def
/D13 { gsave translate 45 rotate 0 0 S13 stroke grestore } bind def
/D14 { gsave translate 45 rotate 0 0 S14 stroke grestore } bind def
/D15 { gsave translate 45 rotate 0 0 S15 stroke grestore } bind def
/DiaE { stroke [] 0 setdash vpt add M
  hpt neg vpt neg V hpt vpt neg V
  hpt vpt V hpt neg vpt V closepath stroke } def
/BoxE { stroke [] 0 setdash exch hpt sub exch vpt add M
  0 vpt2 neg V hpt2 0 V 0 vpt2 V
  hpt2 neg 0 V closepath stroke } def
/TriUE { stroke [] 0 setdash vpt 1.12 mul add M
  hpt neg vpt -1.62 mul V
  hpt 2 mul 0 V
  hpt neg vpt 1.62 mul V closepath stroke } def
/TriDE { stroke [] 0 setdash vpt 1.12 mul sub M
  hpt neg vpt 1.62 mul V
  hpt 2 mul 0 V
  hpt neg vpt -1.62 mul V closepath stroke } def
/PentE { stroke [] 0 setdash gsave
  translate 0 hpt M 4 {72 rotate 0 hpt L} repeat
  closepath stroke grestore } def
/CircE { stroke [] 0 setdash 
  hpt 0 360 arc stroke } def
/Opaque { gsave closepath 1 setgray fill grestore 0 setgray closepath } def
/DiaW { stroke [] 0 setdash vpt add M
  hpt neg vpt neg V hpt vpt neg V
  hpt vpt V hpt neg vpt V Opaque stroke } def
/BoxW { stroke [] 0 setdash exch hpt sub exch vpt add M
  0 vpt2 neg V hpt2 0 V 0 vpt2 V
  hpt2 neg 0 V Opaque stroke } def
/TriUW { stroke [] 0 setdash vpt 1.12 mul add M
  hpt neg vpt -1.62 mul V
  hpt 2 mul 0 V
  hpt neg vpt 1.62 mul V Opaque stroke } def
/TriDW { stroke [] 0 setdash vpt 1.12 mul sub M
  hpt neg vpt 1.62 mul V
  hpt 2 mul 0 V
  hpt neg vpt -1.62 mul V Opaque stroke } def
/PentW { stroke [] 0 setdash gsave
  translate 0 hpt M 4 {72 rotate 0 hpt L} repeat
  Opaque stroke grestore } def
/CircW { stroke [] 0 setdash 
  hpt 0 360 arc Opaque stroke } def
/BoxFill { gsave Rec 1 setgray fill grestore } def
/BoxColFill {
  gsave Rec
  /Fillden exch def
  currentrgbcolor
  /ColB exch def /ColG exch def /ColR exch def
  /ColR ColR Fillden mul Fillden sub 1 add def
  /ColG ColG Fillden mul Fillden sub 1 add def
  /ColB ColB Fillden mul Fillden sub 1 add def
  ColR ColG ColB setrgbcolor
  fill grestore } def
%
% PostScript Level 1 Pattern Fill routine
% Usage: x y w h s a XX PatternFill
%	x,y = lower left corner of box to be filled
%	w,h = width and height of box
%	  a = angle in degrees between lines and x-axis
%	 XX = 0/1 for no/yes cross-hatch
%
/PatternFill { gsave /PFa [ 9 2 roll ] def
    PFa 0 get PFa 2 get 2 div add PFa 1 get PFa 3 get 2 div add translate
    PFa 2 get -2 div PFa 3 get -2 div PFa 2 get PFa 3 get Rec
    gsave 1 setgray fill grestore clip
    currentlinewidth 0.5 mul setlinewidth
    /PFs PFa 2 get dup mul PFa 3 get dup mul add sqrt def
    0 0 M PFa 5 get rotate PFs -2 div dup translate
	0 1 PFs PFa 4 get div 1 add floor cvi
	{ PFa 4 get mul 0 M 0 PFs V } for
    0 PFa 6 get ne {
	0 1 PFs PFa 4 get div 1 add floor cvi
	{ PFa 4 get mul 0 2 1 roll M PFs 0 V } for
    } if
    stroke grestore } def
%
/Symbol-Oblique /Symbol findfont [1 0 .167 1 0 0] makefont
dup length dict begin {1 index /FID eq {pop pop} {def} ifelse} forall
currentdict end definefont pop
/MFshow {
   { dup 5 get 3 ge
     { 5 get 3 eq {gsave} {grestore} ifelse }
     {dup dup 0 get findfont exch 1 get scalefont setfont
     [ currentpoint ] exch dup 2 get 0 exch R dup 5 get 2 ne {dup dup 6
     get exch 4 get {show} {stringwidth pop 0 R} ifelse }if dup 5 get 0 eq
     {dup 3 get {2 get neg 0 exch R pop} {pop aload pop M} ifelse} {dup 5
     get 1 eq {dup 2 get exch dup 3 get exch 6 get stringwidth pop -2 div
     dup 0 R} {dup 6 get stringwidth pop -2 div 0 R 6 get
     show 2 index {aload pop M neg 3 -1 roll neg R pop pop} {pop pop pop
     pop aload pop M} ifelse }ifelse }ifelse }
     ifelse }
   forall} bind def
/MFwidth {0 exch {dup 3 get{dup dup 0 get findfont exch 1 get scalefont
     setfont 6 get stringwidth pop add} {pop} ifelse} forall} bind def
/MLshow { currentpoint stroke M
  0 exch R MFshow } bind def
/MRshow { currentpoint stroke M
  exch dup MFwidth neg 3 -1 roll R MFshow } def
/MCshow { currentpoint stroke M
  exch dup MFwidth -2 div 3 -1 roll R MFshow } def
end
%%EndProlog
%%Page: 1 1
gnudict begin
gsave
50 50 translate
0.100 0.100 scale
90 rotate
0 -5040 translate
0 setgray
newpath
(Helvetica) findfont 140 scalefont setfont
1.000 UL
LTb
714 420 M
63 0 V
4745 0 R
-63 0 V
stroke
630 420 M
gsave 0 setgray
[ [(Helvetica) 140.0 0.0 true true 0 ( 0)]
] -46.7 MRshow
grestore
1.000 UL
LTb
714 548 M
31 0 V
4777 0 R
-31 0 V
714 675 M
31 0 V
4777 0 R
-31 0 V
714 803 M
31 0 V
4777 0 R
-31 0 V
714 930 M
31 0 V
4777 0 R
-31 0 V
714 1058 M
63 0 V
4745 0 R
-63 0 V
stroke
630 1058 M
gsave 0 setgray
[ [(Helvetica) 140.0 0.0 true true 0 ( 50)]
] -46.7 MRshow
grestore
1.000 UL
LTb
714 1185 M
31 0 V
4777 0 R
-31 0 V
714 1313 M
31 0 V
4777 0 R
-31 0 V
714 1440 M
31 0 V
4777 0 R
-31 0 V
714 1568 M
31 0 V
4777 0 R
-31 0 V
714 1696 M
63 0 V
4745 0 R
-63 0 V
stroke
630 1696 M
gsave 0 setgray
[ [(Helvetica) 140.0 0.0 true true 0 ( 100)]
] -46.7 MRshow
grestore
1.000 UL
LTb
714 1823 M
31 0 V
4777 0 R
-31 0 V
714 1951 M
31 0 V
4777 0 R
-31 0 V
714 2078 M
31 0 V
4777 0 R
-31 0 V
714 2206 M
31 0 V
4777 0 R
-31 0 V
714 2333 M
63 0 V
4745 0 R
-63 0 V
stroke
630 2333 M
gsave 0 setgray
[ [(Helvetica) 140.0 0.0 true true 0 ( 150)]
] -46.7 MRshow
grestore
1.000 UL
LTb
714 2461 M
31 0 V
4777 0 R
-31 0 V
714 2588 M
31 0 V
4777 0 R
-31 0 V
714 2716 M
31 0 V
4777 0 R
-31 0 V
714 2844 M
31 0 V
4777 0 R
-31 0 V
714 2971 M
63 0 V
4745 0 R
-63 0 V
stroke
630 2971 M
gsave 0 setgray
[ [(Helvetica) 140.0 0.0 true true 0 ( 200)]
] -46.7 MRshow
grestore
1.000 UL
LTb
714 3099 M
31 0 V
4777 0 R
-31 0 V
714 3226 M
31 0 V
4777 0 R
-31 0 V
714 3354 M
31 0 V
4777 0 R
-31 0 V
714 3481 M
31 0 V
4777 0 R
-31 0 V
714 3609 M
63 0 V
4745 0 R
-63 0 V
stroke
630 3609 M
gsave 0 setgray
[ [(Helvetica) 140.0 0.0 true true 0 ( 250)]
] -46.7 MRshow
grestore
1.000 UL
LTb
714 3736 M
31 0 V
4777 0 R
-31 0 V
714 3864 M
31 0 V
4777 0 R
-31 0 V
5337 420 M
0 63 V
0 3381 R
0 -63 V
stroke
5337 280 M
gsave 0 setgray
[ [(Helvetica) 140.0 0.0 true true 0 (25)]
] -46.7 MCshow
grestore
1.000 UL
LTb
4412 420 M
0 63 V
0 3381 R
0 -63 V
stroke
4412 280 M
gsave 0 setgray
[ [(Helvetica) 140.0 0.0 true true 0 (20)]
] -46.7 MCshow
grestore
1.000 UL
LTb
3488 420 M
0 63 V
0 3381 R
0 -63 V
stroke
3488 280 M
gsave 0 setgray
[ [(Helvetica) 140.0 0.0 true true 0 (15)]
] -46.7 MCshow
grestore
1.000 UL
LTb
2563 420 M
0 63 V
0 3381 R
0 -63 V
stroke
2563 280 M
gsave 0 setgray
[ [(Helvetica) 140.0 0.0 true true 0 (10)]
] -46.7 MCshow
grestore
1.000 UL
LTb
1639 420 M
0 63 V
0 3381 R
0 -63 V
stroke
1639 280 M
gsave 0 setgray
[ [(Helvetica) 140.0 0.0 true true 0 (5)]
] -46.7 MCshow
grestore
1.000 UL
LTb
1084 420 M
0 63 V
0 3381 R
0 -63 V
stroke
1084 280 M
gsave 0 setgray
[ [(Helvetica) 140.0 0.0 true true 0 (2)]
] -46.7 MCshow
grestore
1.000 UL
LTb
899 420 M
0 63 V
0 3381 R
0 -63 V
stroke
899 280 M
gsave 0 setgray
[ [(Helvetica) 140.0 0.0 true true 0 (1)]
] -46.7 MCshow
grestore
1.000 UL
LTb
1.000 UL
LTb
714 420 M
4808 0 V
0 3444 V
-4808 0 V
714 420 L
LTb
140 2142 M
gsave 0 setgray
currentpoint gsave translate 90 rotate 0 0 moveto
[ [(Helvetica) 140.0 0.0 true true 0 (latency\(in seconds\))]
] -46.7 MCshow
grestore
grestore
LTb
3118 70 M
gsave 0 setgray
[ [(Helvetica) 140.0 0.0 true true 0 (Number of nodes in the networks)]
] -46.7 MCshow
grestore
1.000 UP
1.000 UP
1.000 UL
LT0
LTb
2394 3731 M
gsave 0 setgray
[ [(Helvetica) 140.0 0.0 true true 0 (Original Deluge)]
] -46.7 MRshow
grestore
LT0
2478 3731 M
399 0 V
-399 31 R
0 -62 V
399 62 R
0 -62 V
899 790 M
185 290 V
555 451 V
924 765 V
925 362 V
924 144 V
925 32 V
899 772 M
0 37 V
868 772 M
62 0 V
-62 37 R
62 0 V
154 223 R
0 95 V
-31 -95 R
62 0 V
-62 95 R
62 0 V
524 328 R
0 153 V
-31 -153 R
62 0 V
-62 153 R
62 0 V
893 537 R
0 301 V
-31 -301 R
62 0 V
-62 301 R
62 0 V
894 87 R
0 250 V
-31 -250 R
62 0 V
-62 250 R
62 0 V
893 -147 R
0 333 V
-31 -333 R
62 0 V
-62 333 R
62 0 V
894 -263 R
0 255 V
-31 -255 R
62 0 V
-62 255 R
62 0 V
899 790 Crs
1084 1080 Crs
1639 1531 Crs
2563 2296 Crs
3488 2658 Crs
4412 2802 Crs
5337 2834 Crs
2677 3731 Crs
1.000 UP
1.000 UL
LT1
LTb
2394 3591 M
gsave 0 setgray
[ [(Helvetica) 140.0 0.0 true true 0 (secure Deluge)]
] -46.7 MRshow
grestore
LT1
2478 3591 M
399 0 V
-399 31 R
0 -62 V
399 62 R
0 -62 V
899 848 M
185 325 V
555 729 V
924 709 V
925 596 V
924 156 V
925 220 V
899 786 M
0 124 V
868 786 M
62 0 V
868 910 M
62 0 V
154 232 R
0 63 V
-31 -63 R
62 0 V
-62 63 R
62 0 V
524 624 R
0 145 V
-31 -145 R
62 0 V
-62 145 R
62 0 V
893 572 R
0 129 V
-31 -129 R
62 0 V
-62 129 R
62 0 V
894 396 R
0 271 V
-31 -271 R
62 0 V
-62 271 R
62 0 V
893 -100 R
0 243 V
-31 -243 R
62 0 V
-62 243 R
62 0 V
894 -51 R
0 299 V
-31 -299 R
62 0 V
-62 299 R
62 0 V
899 848 Star
1084 1173 Star
1639 1902 Star
2563 2611 Star
3488 3207 Star
4412 3363 Star
5337 3583 Star
2677 3591 Star
1.000 UP
1.000 UL
LT2
LTb
2394 3451 M
gsave 0 setgray
[ [(Helvetica) 140.0 0.0 true true 0 (confidential Deluge)]
] -46.7 MRshow
grestore
LT2
2478 3451 M
399 0 V
-399 31 R
0 -62 V
399 62 R
0 -62 V
899 870 M
185 366 V
555 796 V
924 801 V
925 537 V
924 204 V
925 106 V
899 823 M
0 93 V
868 823 M
62 0 V
-62 93 R
62 0 V
154 253 R
0 133 V
-31 -133 R
62 0 V
-62 133 R
62 0 V
524 693 R
0 74 V
-31 -74 R
62 0 V
-62 74 R
62 0 V
893 696 R
0 136 V
-31 -136 R
62 0 V
-62 136 R
62 0 V
894 310 R
0 318 V
-31 -318 R
62 0 V
-62 318 R
62 0 V
893 -126 R
0 342 V
-31 -342 R
62 0 V
-62 342 R
62 0 V
894 -263 R
0 382 V
-31 -382 R
62 0 V
-62 382 R
62 0 V
899 870 Box
1084 1236 Box
1639 2032 Box
2563 2833 Box
3488 3370 Box
4412 3574 Box
5337 3680 Box
2677 3451 Box
1.000 UL
LTb
714 420 M
4808 0 V
0 3444 V
-4808 0 V
714 420 L
1.000 UP
stroke
grestore
end
showpage
%%Trailer
%%DocumentFonts: Helvetica
%%Pages: 1
