%!PS-Adobe-2.0
%%Title: confidentiality_energy_eeprom.eps
%%Creator: gnuplot 4.0 patchlevel 0
%%CreationDate: Thu Sep 25 13:23:23 2008
%%DocumentFonts: (atend)
%%BoundingBox: 150 50 554 626
%%Orientation: Landscape
%%Pages: (atend)
%%EndComments
/gnudict 256 dict def
gnudict begin
/Color false def
/Solid false def
/gnulinewidth 5.000 def
/userlinewidth gnulinewidth def
/vshift -46 def
/dl {10.0 mul} def
/hpt_ 31.5 def
/vpt_ 31.5 def
/hpt hpt_ def
/vpt vpt_ def
/Rounded false def
/M {moveto} bind def
/L {lineto} bind def
/R {rmoveto} bind def
/V {rlineto} bind def
/N {newpath moveto} bind def
/C {setrgbcolor} bind def
/f {rlineto fill} bind def
/vpt2 vpt 2 mul def
/hpt2 hpt 2 mul def
/Lshow { currentpoint stroke M
  0 vshift R show } def
/Rshow { currentpoint stroke M
  dup stringwidth pop neg vshift R show } def
/Cshow { currentpoint stroke M
  dup stringwidth pop -2 div vshift R show } def
/UP { dup vpt_ mul /vpt exch def hpt_ mul /hpt exch def
  /hpt2 hpt 2 mul def /vpt2 vpt 2 mul def } def
/DL { Color {setrgbcolor Solid {pop []} if 0 setdash }
 {pop pop pop 0 setgray Solid {pop []} if 0 setdash} ifelse } def
/BL { stroke userlinewidth 2 mul setlinewidth
      Rounded { 1 setlinejoin 1 setlinecap } if } def
/AL { stroke userlinewidth 2 div setlinewidth
      Rounded { 1 setlinejoin 1 setlinecap } if } def
/UL { dup gnulinewidth mul /userlinewidth exch def
      dup 1 lt {pop 1} if 10 mul /udl exch def } def
/PL { stroke userlinewidth setlinewidth
      Rounded { 1 setlinejoin 1 setlinecap } if } def
/LTw { PL [] 1 setgray } def
/LTb { BL [] 0 0 0 DL } def
/LTa { AL [1 udl mul 2 udl mul] 0 setdash 0 0 0 setrgbcolor } def
/LT0 { PL [] 1 0 0 DL } def
/LT1 { PL [4 dl 2 dl] 0 1 0 DL } def
/LT2 { PL [2 dl 3 dl] 0 0 1 DL } def
/LT3 { PL [1 dl 1.5 dl] 1 0 1 DL } def
/LT4 { PL [5 dl 2 dl 1 dl 2 dl] 0 1 1 DL } def
/LT5 { PL [4 dl 3 dl 1 dl 3 dl] 1 1 0 DL } def
/LT6 { PL [2 dl 2 dl 2 dl 4 dl] 0 0 0 DL } def
/LT7 { PL [2 dl 2 dl 2 dl 2 dl 2 dl 4 dl] 1 0.3 0 DL } def
/LT8 { PL [2 dl 2 dl 2 dl 2 dl 2 dl 2 dl 2 dl 4 dl] 0.5 0.5 0.5 DL } def
/Pnt { stroke [] 0 setdash
   gsave 1 setlinecap M 0 0 V stroke grestore } def
/Dia { stroke [] 0 setdash 2 copy vpt add M
  hpt neg vpt neg V hpt vpt neg V
  hpt vpt V hpt neg vpt V closepath stroke
  Pnt } def
/Pls { stroke [] 0 setdash vpt sub M 0 vpt2 V
  currentpoint stroke M
  hpt neg vpt neg R hpt2 0 V stroke
  } def
/Box { stroke [] 0 setdash 2 copy exch hpt sub exch vpt add M
  0 vpt2 neg V hpt2 0 V 0 vpt2 V
  hpt2 neg 0 V closepath stroke
  Pnt } def
/Crs { stroke [] 0 setdash exch hpt sub exch vpt add M
  hpt2 vpt2 neg V currentpoint stroke M
  hpt2 neg 0 R hpt2 vpt2 V stroke } def
/TriU { stroke [] 0 setdash 2 copy vpt 1.12 mul add M
  hpt neg vpt -1.62 mul V
  hpt 2 mul 0 V
  hpt neg vpt 1.62 mul V closepath stroke
  Pnt  } def
/Star { 2 copy Pls Crs } def
/BoxF { stroke [] 0 setdash exch hpt sub exch vpt add M
  0 vpt2 neg V  hpt2 0 V  0 vpt2 V
  hpt2 neg 0 V  closepath fill } def
/TriUF { stroke [] 0 setdash vpt 1.12 mul add M
  hpt neg vpt -1.62 mul V
  hpt 2 mul 0 V
  hpt neg vpt 1.62 mul V closepath fill } def
/TriD { stroke [] 0 setdash 2 copy vpt 1.12 mul sub M
  hpt neg vpt 1.62 mul V
  hpt 2 mul 0 V
  hpt neg vpt -1.62 mul V closepath stroke
  Pnt  } def
/TriDF { stroke [] 0 setdash vpt 1.12 mul sub M
  hpt neg vpt 1.62 mul V
  hpt 2 mul 0 V
  hpt neg vpt -1.62 mul V closepath fill} def
/DiaF { stroke [] 0 setdash vpt add M
  hpt neg vpt neg V hpt vpt neg V
  hpt vpt V hpt neg vpt V closepath fill } def
/Pent { stroke [] 0 setdash 2 copy gsave
  translate 0 hpt M 4 {72 rotate 0 hpt L} repeat
  closepath stroke grestore Pnt } def
/PentF { stroke [] 0 setdash gsave
  translate 0 hpt M 4 {72 rotate 0 hpt L} repeat
  closepath fill grestore } def
/Circle { stroke [] 0 setdash 2 copy
  hpt 0 360 arc stroke Pnt } def
/CircleF { stroke [] 0 setdash hpt 0 360 arc fill } def
/C0 { BL [] 0 setdash 2 copy moveto vpt 90 450  arc } bind def
/C1 { BL [] 0 setdash 2 copy        moveto
       2 copy  vpt 0 90 arc closepath fill
               vpt 0 360 arc closepath } bind def
/C2 { BL [] 0 setdash 2 copy moveto
       2 copy  vpt 90 180 arc closepath fill
               vpt 0 360 arc closepath } bind def
/C3 { BL [] 0 setdash 2 copy moveto
       2 copy  vpt 0 180 arc closepath fill
               vpt 0 360 arc closepath } bind def
/C4 { BL [] 0 setdash 2 copy moveto
       2 copy  vpt 180 270 arc closepath fill
               vpt 0 360 arc closepath } bind def
/C5 { BL [] 0 setdash 2 copy moveto
       2 copy  vpt 0 90 arc
       2 copy moveto
       2 copy  vpt 180 270 arc closepath fill
               vpt 0 360 arc } bind def
/C6 { BL [] 0 setdash 2 copy moveto
      2 copy  vpt 90 270 arc closepath fill
              vpt 0 360 arc closepath } bind def
/C7 { BL [] 0 setdash 2 copy moveto
      2 copy  vpt 0 270 arc closepath fill
              vpt 0 360 arc closepath } bind def
/C8 { BL [] 0 setdash 2 copy moveto
      2 copy vpt 270 360 arc closepath fill
              vpt 0 360 arc closepath } bind def
/C9 { BL [] 0 setdash 2 copy moveto
      2 copy  vpt 270 450 arc closepath fill
              vpt 0 360 arc closepath } bind def
/C10 { BL [] 0 setdash 2 copy 2 copy moveto vpt 270 360 arc closepath fill
       2 copy moveto
       2 copy vpt 90 180 arc closepath fill
               vpt 0 360 arc closepath } bind def
/C11 { BL [] 0 setdash 2 copy moveto
       2 copy  vpt 0 180 arc closepath fill
       2 copy moveto
       2 copy  vpt 270 360 arc closepath fill
               vpt 0 360 arc closepath } bind def
/C12 { BL [] 0 setdash 2 copy moveto
       2 copy  vpt 180 360 arc closepath fill
               vpt 0 360 arc closepath } bind def
/C13 { BL [] 0 setdash  2 copy moveto
       2 copy  vpt 0 90 arc closepath fill
       2 copy moveto
       2 copy  vpt 180 360 arc closepath fill
               vpt 0 360 arc closepath } bind def
/C14 { BL [] 0 setdash 2 copy moveto
       2 copy  vpt 90 360 arc closepath fill
               vpt 0 360 arc } bind def
/C15 { BL [] 0 setdash 2 copy vpt 0 360 arc closepath fill
               vpt 0 360 arc closepath } bind def
/Rec   { newpath 4 2 roll moveto 1 index 0 rlineto 0 exch rlineto
       neg 0 rlineto closepath } bind def
/Square { dup Rec } bind def
/Bsquare { vpt sub exch vpt sub exch vpt2 Square } bind def
/S0 { BL [] 0 setdash 2 copy moveto 0 vpt rlineto BL Bsquare } bind def
/S1 { BL [] 0 setdash 2 copy vpt Square fill Bsquare } bind def
/S2 { BL [] 0 setdash 2 copy exch vpt sub exch vpt Square fill Bsquare } bind def
/S3 { BL [] 0 setdash 2 copy exch vpt sub exch vpt2 vpt Rec fill Bsquare } bind def
/S4 { BL [] 0 setdash 2 copy exch vpt sub exch vpt sub vpt Square fill Bsquare } bind def
/S5 { BL [] 0 setdash 2 copy 2 copy vpt Square fill
       exch vpt sub exch vpt sub vpt Square fill Bsquare } bind def
/S6 { BL [] 0 setdash 2 copy exch vpt sub exch vpt sub vpt vpt2 Rec fill Bsquare } bind def
/S7 { BL [] 0 setdash 2 copy exch vpt sub exch vpt sub vpt vpt2 Rec fill
       2 copy vpt Square fill
       Bsquare } bind def
/S8 { BL [] 0 setdash 2 copy vpt sub vpt Square fill Bsquare } bind def
/S9 { BL [] 0 setdash 2 copy vpt sub vpt vpt2 Rec fill Bsquare } bind def
/S10 { BL [] 0 setdash 2 copy vpt sub vpt Square fill 2 copy exch vpt sub exch vpt Square fill
       Bsquare } bind def
/S11 { BL [] 0 setdash 2 copy vpt sub vpt Square fill 2 copy exch vpt sub exch vpt2 vpt Rec fill
       Bsquare } bind def
/S12 { BL [] 0 setdash 2 copy exch vpt sub exch vpt sub vpt2 vpt Rec fill Bsquare } bind def
/S13 { BL [] 0 setdash 2 copy exch vpt sub exch vpt sub vpt2 vpt Rec fill
       2 copy vpt Square fill Bsquare } bind def
/S14 { BL [] 0 setdash 2 copy exch vpt sub exch vpt sub vpt2 vpt Rec fill
       2 copy exch vpt sub exch vpt Square fill Bsquare } bind def
/S15 { BL [] 0 setdash 2 copy Bsquare fill Bsquare } bind def
/D0 { gsave translate 45 rotate 0 0 S0 stroke grestore } bind def
/D1 { gsave translate 45 rotate 0 0 S1 stroke grestore } bind def
/D2 { gsave translate 45 rotate 0 0 S2 stroke grestore } bind def
/D3 { gsave translate 45 rotate 0 0 S3 stroke grestore } bind def
/D4 { gsave translate 45 rotate 0 0 S4 stroke grestore } bind def
/D5 { gsave translate 45 rotate 0 0 S5 stroke grestore } bind def
/D6 { gsave translate 45 rotate 0 0 S6 stroke grestore } bind def
/D7 { gsave translate 45 rotate 0 0 S7 stroke grestore } bind def
/D8 { gsave translate 45 rotate 0 0 S8 stroke grestore } bind def
/D9 { gsave translate 45 rotate 0 0 S9 stroke grestore } bind def
/D10 { gsave translate 45 rotate 0 0 S10 stroke grestore } bind def
/D11 { gsave translate 45 rotate 0 0 S11 stroke grestore } bind def
/D12 { gsave translate 45 rotate 0 0 S12 stroke grestore } bind def
/D13 { gsave translate 45 rotate 0 0 S13 stroke grestore } bind def
/D14 { gsave translate 45 rotate 0 0 S14 stroke grestore } bind def
/D15 { gsave translate 45 rotate 0 0 S15 stroke grestore } bind def
/DiaE { stroke [] 0 setdash vpt add M
  hpt neg vpt neg V hpt vpt neg V
  hpt vpt V hpt neg vpt V closepath stroke } def
/BoxE { stroke [] 0 setdash exch hpt sub exch vpt add M
  0 vpt2 neg V hpt2 0 V 0 vpt2 V
  hpt2 neg 0 V closepath stroke } def
/TriUE { stroke [] 0 setdash vpt 1.12 mul add M
  hpt neg vpt -1.62 mul V
  hpt 2 mul 0 V
  hpt neg vpt 1.62 mul V closepath stroke } def
/TriDE { stroke [] 0 setdash vpt 1.12 mul sub M
  hpt neg vpt 1.62 mul V
  hpt 2 mul 0 V
  hpt neg vpt -1.62 mul V closepath stroke } def
/PentE { stroke [] 0 setdash gsave
  translate 0 hpt M 4 {72 rotate 0 hpt L} repeat
  closepath stroke grestore } def
/CircE { stroke [] 0 setdash 
  hpt 0 360 arc stroke } def
/Opaque { gsave closepath 1 setgray fill grestore 0 setgray closepath } def
/DiaW { stroke [] 0 setdash vpt add M
  hpt neg vpt neg V hpt vpt neg V
  hpt vpt V hpt neg vpt V Opaque stroke } def
/BoxW { stroke [] 0 setdash exch hpt sub exch vpt add M
  0 vpt2 neg V hpt2 0 V 0 vpt2 V
  hpt2 neg 0 V Opaque stroke } def
/TriUW { stroke [] 0 setdash vpt 1.12 mul add M
  hpt neg vpt -1.62 mul V
  hpt 2 mul 0 V
  hpt neg vpt 1.62 mul V Opaque stroke } def
/TriDW { stroke [] 0 setdash vpt 1.12 mul sub M
  hpt neg vpt 1.62 mul V
  hpt 2 mul 0 V
  hpt neg vpt -1.62 mul V Opaque stroke } def
/PentW { stroke [] 0 setdash gsave
  translate 0 hpt M 4 {72 rotate 0 hpt L} repeat
  Opaque stroke grestore } def
/CircW { stroke [] 0 setdash 
  hpt 0 360 arc Opaque stroke } def
/BoxFill { gsave Rec 1 setgray fill grestore } def
/BoxColFill {
  gsave Rec
  /Fillden exch def
  currentrgbcolor
  /ColB exch def /ColG exch def /ColR exch def
  /ColR ColR Fillden mul Fillden sub 1 add def
  /ColG ColG Fillden mul Fillden sub 1 add def
  /ColB ColB Fillden mul Fillden sub 1 add def
  ColR ColG ColB setrgbcolor
  fill grestore } def
%
% PostScript Level 1 Pattern Fill routine
% Usage: x y w h s a XX PatternFill
%	x,y = lower left corner of box to be filled
%	w,h = width and height of box
%	  a = angle in degrees between lines and x-axis
%	 XX = 0/1 for no/yes cross-hatch
%
/PatternFill { gsave /PFa [ 9 2 roll ] def
    PFa 0 get PFa 2 get 2 div add PFa 1 get PFa 3 get 2 div add translate
    PFa 2 get -2 div PFa 3 get -2 div PFa 2 get PFa 3 get Rec
    gsave 1 setgray fill grestore clip
    currentlinewidth 0.5 mul setlinewidth
    /PFs PFa 2 get dup mul PFa 3 get dup mul add sqrt def
    0 0 M PFa 5 get rotate PFs -2 div dup translate
	0 1 PFs PFa 4 get div 1 add floor cvi
	{ PFa 4 get mul 0 M 0 PFs V } for
    0 PFa 6 get ne {
	0 1 PFs PFa 4 get div 1 add floor cvi
	{ PFa 4 get mul 0 2 1 roll M PFs 0 V } for
    } if
    stroke grestore } def
%
/Symbol-Oblique /Symbol findfont [1 0 .167 1 0 0] makefont
dup length dict begin {1 index /FID eq {pop pop} {def} ifelse} forall
currentdict end definefont pop
/MFshow {
   { dup 5 get 3 ge
     { 5 get 3 eq {gsave} {grestore} ifelse }
     {dup dup 0 get findfont exch 1 get scalefont setfont
     [ currentpoint ] exch dup 2 get 0 exch R dup 5 get 2 ne {dup dup 6
     get exch 4 get {show} {stringwidth pop 0 R} ifelse }if dup 5 get 0 eq
     {dup 3 get {2 get neg 0 exch R pop} {pop aload pop M} ifelse} {dup 5
     get 1 eq {dup 2 get exch dup 3 get exch 6 get stringwidth pop -2 div
     dup 0 R} {dup 6 get stringwidth pop -2 div 0 R 6 get
     show 2 index {aload pop M neg 3 -1 roll neg R pop pop} {pop pop pop
     pop aload pop M} ifelse }ifelse }ifelse }
     ifelse }
   forall} bind def
/MFwidth {0 exch {dup 3 get{dup dup 0 get findfont exch 1 get scalefont
     setfont 6 get stringwidth pop add} {pop} ifelse} forall} bind def
/MLshow { currentpoint stroke M
  0 exch R MFshow } bind def
/MRshow { currentpoint stroke M
  exch dup MFwidth neg 3 -1 roll R MFshow } def
/MCshow { currentpoint stroke M
  exch dup MFwidth -2 div 3 -1 roll R MFshow } def
end
%%EndProlog
%%Page: 1 1
gnudict begin
gsave
50 50 translate
0.100 0.100 scale
90 rotate
0 -5040 translate
0 setgray
newpath
(Helvetica) findfont 140 scalefont setfont
1.000 UL
LTb
546 420 M
63 0 V
4913 0 R
-63 0 V
stroke
462 420 M
gsave 0 setgray
[ [(Helvetica) 140.0 0.0 true true 0 ( 0)]
] -46.7 MRshow
grestore
1.000 UL
LTb
546 526 M
31 0 V
4945 0 R
-31 0 V
546 632 M
31 0 V
4945 0 R
-31 0 V
546 738 M
31 0 V
4945 0 R
-31 0 V
546 844 M
31 0 V
4945 0 R
-31 0 V
546 950 M
63 0 V
4913 0 R
-63 0 V
stroke
462 950 M
gsave 0 setgray
[ [(Helvetica) 140.0 0.0 true true 0 ( 1)]
] -46.7 MRshow
grestore
1.000 UL
LTb
546 1056 M
31 0 V
4945 0 R
-31 0 V
546 1162 M
31 0 V
4945 0 R
-31 0 V
546 1268 M
31 0 V
4945 0 R
-31 0 V
546 1374 M
31 0 V
4945 0 R
-31 0 V
546 1480 M
63 0 V
4913 0 R
-63 0 V
stroke
462 1480 M
gsave 0 setgray
[ [(Helvetica) 140.0 0.0 true true 0 ( 2)]
] -46.7 MRshow
grestore
1.000 UL
LTb
546 1586 M
31 0 V
4945 0 R
-31 0 V
546 1692 M
31 0 V
4945 0 R
-31 0 V
546 1798 M
31 0 V
4945 0 R
-31 0 V
546 1904 M
31 0 V
4945 0 R
-31 0 V
546 2010 M
63 0 V
4913 0 R
-63 0 V
stroke
462 2010 M
gsave 0 setgray
[ [(Helvetica) 140.0 0.0 true true 0 ( 3)]
] -46.7 MRshow
grestore
1.000 UL
LTb
546 2116 M
31 0 V
4945 0 R
-31 0 V
546 2221 M
31 0 V
4945 0 R
-31 0 V
546 2327 M
31 0 V
4945 0 R
-31 0 V
546 2433 M
31 0 V
4945 0 R
-31 0 V
546 2539 M
63 0 V
4913 0 R
-63 0 V
stroke
462 2539 M
gsave 0 setgray
[ [(Helvetica) 140.0 0.0 true true 0 ( 4)]
] -46.7 MRshow
grestore
1.000 UL
LTb
546 2645 M
31 0 V
4945 0 R
-31 0 V
546 2751 M
31 0 V
4945 0 R
-31 0 V
546 2857 M
31 0 V
4945 0 R
-31 0 V
546 2963 M
31 0 V
4945 0 R
-31 0 V
546 3069 M
63 0 V
4913 0 R
-63 0 V
stroke
462 3069 M
gsave 0 setgray
[ [(Helvetica) 140.0 0.0 true true 0 ( 5)]
] -46.7 MRshow
grestore
1.000 UL
LTb
546 3175 M
31 0 V
4945 0 R
-31 0 V
546 3281 M
31 0 V
4945 0 R
-31 0 V
546 3387 M
31 0 V
4945 0 R
-31 0 V
546 3493 M
31 0 V
4945 0 R
-31 0 V
546 3599 M
63 0 V
4913 0 R
-63 0 V
stroke
462 3599 M
gsave 0 setgray
[ [(Helvetica) 140.0 0.0 true true 0 ( 6)]
] -46.7 MRshow
grestore
1.000 UL
LTb
546 3705 M
31 0 V
4945 0 R
-31 0 V
546 3811 M
31 0 V
4945 0 R
-31 0 V
5331 420 M
0 63 V
0 3381 R
0 -63 V
stroke
5331 280 M
gsave 0 setgray
[ [(Helvetica) 140.0 0.0 true true 0 (25)]
] -46.7 MCshow
grestore
1.000 UL
LTb
4374 420 M
0 63 V
0 3381 R
0 -63 V
stroke
4374 280 M
gsave 0 setgray
[ [(Helvetica) 140.0 0.0 true true 0 (20)]
] -46.7 MCshow
grestore
1.000 UL
LTb
3417 420 M
0 63 V
0 3381 R
0 -63 V
stroke
3417 280 M
gsave 0 setgray
[ [(Helvetica) 140.0 0.0 true true 0 (15)]
] -46.7 MCshow
grestore
1.000 UL
LTb
2460 420 M
0 63 V
0 3381 R
0 -63 V
stroke
2460 280 M
gsave 0 setgray
[ [(Helvetica) 140.0 0.0 true true 0 (10)]
] -46.7 MCshow
grestore
1.000 UL
LTb
1503 420 M
0 63 V
0 3381 R
0 -63 V
stroke
1503 280 M
gsave 0 setgray
[ [(Helvetica) 140.0 0.0 true true 0 (5)]
] -46.7 MCshow
grestore
1.000 UL
LTb
929 420 M
0 63 V
0 3381 R
0 -63 V
stroke
929 280 M
gsave 0 setgray
[ [(Helvetica) 140.0 0.0 true true 0 (2)]
] -46.7 MCshow
grestore
1.000 UL
LTb
737 420 M
0 63 V
0 3381 R
0 -63 V
stroke
737 280 M
gsave 0 setgray
[ [(Helvetica) 140.0 0.0 true true 0 (1)]
] -46.7 MCshow
grestore
1.000 UL
LTb
1.000 UL
LTb
546 420 M
4976 0 V
0 3444 V
-4976 0 V
546 420 L
LTb
140 2142 M
gsave 0 setgray
currentpoint gsave translate 90 rotate 0 0 moveto
[ [(Helvetica) 140.0 0.0 true true 0 (Power Consumption\(joules\) in EEPROM)]
] -46.7 MCshow
grestore
grestore
LTb
3034 70 M
gsave 0 setgray
[ [(Helvetica) 140.0 0.0 true true 0 (Number of nodes in the networks)]
] -46.7 MCshow
grestore
1.000 UP
1.000 UP
1.000 UL
LT0
LTb
2226 3731 M
gsave 0 setgray
[ [(Helvetica) 140.0 0.0 true true 0 (Original Deluge)]
] -46.7 MRshow
grestore
LT0
2310 3731 M
399 0 V
-399 31 R
0 -62 V
399 62 R
0 -62 V
737 711 M
929 927 L
574 460 V
957 185 V
957 76 V
957 299 V
957 114 V
737 711 M
-31 0 R
62 0 V
-62 0 R
62 0 V
929 854 M
0 145 V
898 854 M
62 0 V
898 999 M
62 0 V
543 237 R
0 303 V
-31 -303 R
62 0 V
-62 303 R
62 0 V
926 -233 R
0 533 V
-31 -533 R
62 0 V
-62 533 R
62 0 V
926 -585 R
0 788 V
-31 -788 R
62 0 V
-62 788 R
62 0 V
926 -533 R
0 877 V
-31 -877 R
62 0 V
-62 877 R
62 0 V
926 -753 R
0 857 V
-31 -857 R
62 0 V
-62 857 R
62 0 V
737 711 Pls
929 927 Pls
1503 1387 Pls
2460 1572 Pls
3417 1648 Pls
4374 1947 Pls
5331 2061 Pls
2509 3731 Pls
1.000 UP
1.000 UL
LT1
LTb
2226 3591 M
gsave 0 setgray
[ [(Helvetica) 140.0 0.0 true true 0 (secure Deluge)]
] -46.7 MRshow
grestore
LT1
2310 3591 M
399 0 V
-399 31 R
0 -62 V
399 62 R
0 -62 V
737 718 M
929 998 L
574 535 V
957 172 V
957 218 V
957 315 V
957 78 V
737 718 M
-31 0 R
62 0 V
-62 0 R
62 0 V
929 633 M
0 730 V
898 633 M
62 0 V
-62 730 R
62 0 V
543 -45 R
0 431 V
-31 -431 R
62 0 V
-62 431 R
62 0 V
926 -248 R
0 408 V
-31 -408 R
62 0 V
-62 408 R
62 0 V
926 -413 R
0 855 V
-31 -855 R
62 0 V
-62 855 R
62 0 V
926 -588 R
0 949 V
-31 -949 R
62 0 V
-62 949 R
62 0 V
926 -853 R
0 914 V
-31 -914 R
62 0 V
-62 914 R
62 0 V
737 718 Crs
929 998 Crs
1503 1533 Crs
2460 1705 Crs
3417 1923 Crs
4374 2238 Crs
5331 2316 Crs
2509 3591 Crs
1.000 UP
1.000 UL
LT2
LTb
2226 3451 M
gsave 0 setgray
[ [(Helvetica) 140.0 0.0 true true 0 (confidential Deluge)]
] -46.7 MRshow
grestore
LT2
2310 3451 M
399 0 V
-399 31 R
0 -62 V
399 62 R
0 -62 V
737 702 M
929 986 L
574 961 V
957 63 V
957 685 V
957 168 V
957 79 V
737 702 M
-31 0 R
62 0 V
-62 0 R
62 0 V
929 629 M
0 714 V
898 629 M
62 0 V
-62 714 R
62 0 V
543 257 R
0 695 V
-31 -695 R
62 0 V
-62 695 R
62 0 V
926 -711 R
0 853 V
-31 -853 R
62 0 V
-62 853 R
62 0 V
926 -157 R
0 831 V
-31 -831 R
62 0 V
-62 831 R
62 0 V
926 -660 R
0 824 V
-31 -824 R
62 0 V
-62 824 R
62 0 V
926 -788 R
0 910 V
-31 -910 R
62 0 V
-62 910 R
62 0 V
737 702 Star
929 986 Star
1503 1947 Star
2460 2010 Star
3417 2695 Star
4374 2863 Star
5331 2942 Star
2509 3451 Star
1.000 UL
LTb
546 420 M
4976 0 V
0 3444 V
-4976 0 V
546 420 L
1.000 UP
stroke
grestore
end
showpage
%%Trailer
%%DocumentFonts: Helvetica
%%Pages: 1
