%!PS-Adobe-2.0
%%Title: lantency_1_hop.eps
%%Creator: gnuplot 4.0 patchlevel 0
%%CreationDate: Sun Sep 21 17:12:32 2008
%%DocumentFonts: (atend)
%%BoundingBox: 150 50 554 626
%%Orientation: Landscape
%%Pages: (atend)
%%EndComments
/gnudict 256 dict def
gnudict begin
/Color false def
/Solid false def
/gnulinewidth 5.000 def
/userlinewidth gnulinewidth def
/vshift -46 def
/dl {10.0 mul} def
/hpt_ 31.5 def
/vpt_ 31.5 def
/hpt hpt_ def
/vpt vpt_ def
/Rounded false def
/M {moveto} bind def
/L {lineto} bind def
/R {rmoveto} bind def
/V {rlineto} bind def
/N {newpath moveto} bind def
/C {setrgbcolor} bind def
/f {rlineto fill} bind def
/vpt2 vpt 2 mul def
/hpt2 hpt 2 mul def
/Lshow { currentpoint stroke M
  0 vshift R show } def
/Rshow { currentpoint stroke M
  dup stringwidth pop neg vshift R show } def
/Cshow { currentpoint stroke M
  dup stringwidth pop -2 div vshift R show } def
/UP { dup vpt_ mul /vpt exch def hpt_ mul /hpt exch def
  /hpt2 hpt 2 mul def /vpt2 vpt 2 mul def } def
/DL { Color {setrgbcolor Solid {pop []} if 0 setdash }
 {pop pop pop 0 setgray Solid {pop []} if 0 setdash} ifelse } def
/BL { stroke userlinewidth 2 mul setlinewidth
      Rounded { 1 setlinejoin 1 setlinecap } if } def
/AL { stroke userlinewidth 2 div setlinewidth
      Rounded { 1 setlinejoin 1 setlinecap } if } def
/UL { dup gnulinewidth mul /userlinewidth exch def
      dup 1 lt {pop 1} if 10 mul /udl exch def } def
/PL { stroke userlinewidth setlinewidth
      Rounded { 1 setlinejoin 1 setlinecap } if } def
/LTw { PL [] 1 setgray } def
/LTb { BL [] 0 0 0 DL } def
/LTa { AL [1 udl mul 2 udl mul] 0 setdash 0 0 0 setrgbcolor } def
/LT0 { PL [] 1 0 0 DL } def
/LT1 { PL [4 dl 2 dl] 0 1 0 DL } def
/LT2 { PL [2 dl 3 dl] 0 0 1 DL } def
/LT3 { PL [1 dl 1.5 dl] 1 0 1 DL } def
/LT4 { PL [5 dl 2 dl 1 dl 2 dl] 0 1 1 DL } def
/LT5 { PL [4 dl 3 dl 1 dl 3 dl] 1 1 0 DL } def
/LT6 { PL [2 dl 2 dl 2 dl 4 dl] 0 0 0 DL } def
/LT7 { PL [2 dl 2 dl 2 dl 2 dl 2 dl 4 dl] 1 0.3 0 DL } def
/LT8 { PL [2 dl 2 dl 2 dl 2 dl 2 dl 2 dl 2 dl 4 dl] 0.5 0.5 0.5 DL } def
/Pnt { stroke [] 0 setdash
   gsave 1 setlinecap M 0 0 V stroke grestore } def
/Dia { stroke [] 0 setdash 2 copy vpt add M
  hpt neg vpt neg V hpt vpt neg V
  hpt vpt V hpt neg vpt V closepath stroke
  Pnt } def
/Pls { stroke [] 0 setdash vpt sub M 0 vpt2 V
  currentpoint stroke M
  hpt neg vpt neg R hpt2 0 V stroke
  } def
/Box { stroke [] 0 setdash 2 copy exch hpt sub exch vpt add M
  0 vpt2 neg V hpt2 0 V 0 vpt2 V
  hpt2 neg 0 V closepath stroke
  Pnt } def
/Crs { stroke [] 0 setdash exch hpt sub exch vpt add M
  hpt2 vpt2 neg V currentpoint stroke M
  hpt2 neg 0 R hpt2 vpt2 V stroke } def
/TriU { stroke [] 0 setdash 2 copy vpt 1.12 mul add M
  hpt neg vpt -1.62 mul V
  hpt 2 mul 0 V
  hpt neg vpt 1.62 mul V closepath stroke
  Pnt  } def
/Star { 2 copy Pls Crs } def
/BoxF { stroke [] 0 setdash exch hpt sub exch vpt add M
  0 vpt2 neg V  hpt2 0 V  0 vpt2 V
  hpt2 neg 0 V  closepath fill } def
/TriUF { stroke [] 0 setdash vpt 1.12 mul add M
  hpt neg vpt -1.62 mul V
  hpt 2 mul 0 V
  hpt neg vpt 1.62 mul V closepath fill } def
/TriD { stroke [] 0 setdash 2 copy vpt 1.12 mul sub M
  hpt neg vpt 1.62 mul V
  hpt 2 mul 0 V
  hpt neg vpt -1.62 mul V closepath stroke
  Pnt  } def
/TriDF { stroke [] 0 setdash vpt 1.12 mul sub M
  hpt neg vpt 1.62 mul V
  hpt 2 mul 0 V
  hpt neg vpt -1.62 mul V closepath fill} def
/DiaF { stroke [] 0 setdash vpt add M
  hpt neg vpt neg V hpt vpt neg V
  hpt vpt V hpt neg vpt V closepath fill } def
/Pent { stroke [] 0 setdash 2 copy gsave
  translate 0 hpt M 4 {72 rotate 0 hpt L} repeat
  closepath stroke grestore Pnt } def
/PentF { stroke [] 0 setdash gsave
  translate 0 hpt M 4 {72 rotate 0 hpt L} repeat
  closepath fill grestore } def
/Circle { stroke [] 0 setdash 2 copy
  hpt 0 360 arc stroke Pnt } def
/CircleF { stroke [] 0 setdash hpt 0 360 arc fill } def
/C0 { BL [] 0 setdash 2 copy moveto vpt 90 450  arc } bind def
/C1 { BL [] 0 setdash 2 copy        moveto
       2 copy  vpt 0 90 arc closepath fill
               vpt 0 360 arc closepath } bind def
/C2 { BL [] 0 setdash 2 copy moveto
       2 copy  vpt 90 180 arc closepath fill
               vpt 0 360 arc closepath } bind def
/C3 { BL [] 0 setdash 2 copy moveto
       2 copy  vpt 0 180 arc closepath fill
               vpt 0 360 arc closepath } bind def
/C4 { BL [] 0 setdash 2 copy moveto
       2 copy  vpt 180 270 arc closepath fill
               vpt 0 360 arc closepath } bind def
/C5 { BL [] 0 setdash 2 copy moveto
       2 copy  vpt 0 90 arc
       2 copy moveto
       2 copy  vpt 180 270 arc closepath fill
               vpt 0 360 arc } bind def
/C6 { BL [] 0 setdash 2 copy moveto
      2 copy  vpt 90 270 arc closepath fill
              vpt 0 360 arc closepath } bind def
/C7 { BL [] 0 setdash 2 copy moveto
      2 copy  vpt 0 270 arc closepath fill
              vpt 0 360 arc closepath } bind def
/C8 { BL [] 0 setdash 2 copy moveto
      2 copy vpt 270 360 arc closepath fill
              vpt 0 360 arc closepath } bind def
/C9 { BL [] 0 setdash 2 copy moveto
      2 copy  vpt 270 450 arc closepath fill
              vpt 0 360 arc closepath } bind def
/C10 { BL [] 0 setdash 2 copy 2 copy moveto vpt 270 360 arc closepath fill
       2 copy moveto
       2 copy vpt 90 180 arc closepath fill
               vpt 0 360 arc closepath } bind def
/C11 { BL [] 0 setdash 2 copy moveto
       2 copy  vpt 0 180 arc closepath fill
       2 copy moveto
       2 copy  vpt 270 360 arc closepath fill
               vpt 0 360 arc closepath } bind def
/C12 { BL [] 0 setdash 2 copy moveto
       2 copy  vpt 180 360 arc closepath fill
               vpt 0 360 arc closepath } bind def
/C13 { BL [] 0 setdash  2 copy moveto
       2 copy  vpt 0 90 arc closepath fill
       2 copy moveto
       2 copy  vpt 180 360 arc closepath fill
               vpt 0 360 arc closepath } bind def
/C14 { BL [] 0 setdash 2 copy moveto
       2 copy  vpt 90 360 arc closepath fill
               vpt 0 360 arc } bind def
/C15 { BL [] 0 setdash 2 copy vpt 0 360 arc closepath fill
               vpt 0 360 arc closepath } bind def
/Rec   { newpath 4 2 roll moveto 1 index 0 rlineto 0 exch rlineto
       neg 0 rlineto closepath } bind def
/Square { dup Rec } bind def
/Bsquare { vpt sub exch vpt sub exch vpt2 Square } bind def
/S0 { BL [] 0 setdash 2 copy moveto 0 vpt rlineto BL Bsquare } bind def
/S1 { BL [] 0 setdash 2 copy vpt Square fill Bsquare } bind def
/S2 { BL [] 0 setdash 2 copy exch vpt sub exch vpt Square fill Bsquare } bind def
/S3 { BL [] 0 setdash 2 copy exch vpt sub exch vpt2 vpt Rec fill Bsquare } bind def
/S4 { BL [] 0 setdash 2 copy exch vpt sub exch vpt sub vpt Square fill Bsquare } bind def
/S5 { BL [] 0 setdash 2 copy 2 copy vpt Square fill
       exch vpt sub exch vpt sub vpt Square fill Bsquare } bind def
/S6 { BL [] 0 setdash 2 copy exch vpt sub exch vpt sub vpt vpt2 Rec fill Bsquare } bind def
/S7 { BL [] 0 setdash 2 copy exch vpt sub exch vpt sub vpt vpt2 Rec fill
       2 copy vpt Square fill
       Bsquare } bind def
/S8 { BL [] 0 setdash 2 copy vpt sub vpt Square fill Bsquare } bind def
/S9 { BL [] 0 setdash 2 copy vpt sub vpt vpt2 Rec fill Bsquare } bind def
/S10 { BL [] 0 setdash 2 copy vpt sub vpt Square fill 2 copy exch vpt sub exch vpt Square fill
       Bsquare } bind def
/S11 { BL [] 0 setdash 2 copy vpt sub vpt Square fill 2 copy exch vpt sub exch vpt2 vpt Rec fill
       Bsquare } bind def
/S12 { BL [] 0 setdash 2 copy exch vpt sub exch vpt sub vpt2 vpt Rec fill Bsquare } bind def
/S13 { BL [] 0 setdash 2 copy exch vpt sub exch vpt sub vpt2 vpt Rec fill
       2 copy vpt Square fill Bsquare } bind def
/S14 { BL [] 0 setdash 2 copy exch vpt sub exch vpt sub vpt2 vpt Rec fill
       2 copy exch vpt sub exch vpt Square fill Bsquare } bind def
/S15 { BL [] 0 setdash 2 copy Bsquare fill Bsquare } bind def
/D0 { gsave translate 45 rotate 0 0 S0 stroke grestore } bind def
/D1 { gsave translate 45 rotate 0 0 S1 stroke grestore } bind def
/D2 { gsave translate 45 rotate 0 0 S2 stroke grestore } bind def
/D3 { gsave translate 45 rotate 0 0 S3 stroke grestore } bind def
/D4 { gsave translate 45 rotate 0 0 S4 stroke grestore } bind def
/D5 { gsave translate 45 rotate 0 0 S5 stroke grestore } bind def
/D6 { gsave translate 45 rotate 0 0 S6 stroke grestore } bind def
/D7 { gsave translate 45 rotate 0 0 S7 stroke grestore } bind def
/D8 { gsave translate 45 rotate 0 0 S8 stroke grestore } bind def
/D9 { gsave translate 45 rotate 0 0 S9 stroke grestore } bind def
/D10 { gsave translate 45 rotate 0 0 S10 stroke grestore } bind def
/D11 { gsave translate 45 rotate 0 0 S11 stroke grestore } bind def
/D12 { gsave translate 45 rotate 0 0 S12 stroke grestore } bind def
/D13 { gsave translate 45 rotate 0 0 S13 stroke grestore } bind def
/D14 { gsave translate 45 rotate 0 0 S14 stroke grestore } bind def
/D15 { gsave translate 45 rotate 0 0 S15 stroke grestore } bind def
/DiaE { stroke [] 0 setdash vpt add M
  hpt neg vpt neg V hpt vpt neg V
  hpt vpt V hpt neg vpt V closepath stroke } def
/BoxE { stroke [] 0 setdash exch hpt sub exch vpt add M
  0 vpt2 neg V hpt2 0 V 0 vpt2 V
  hpt2 neg 0 V closepath stroke } def
/TriUE { stroke [] 0 setdash vpt 1.12 mul add M
  hpt neg vpt -1.62 mul V
  hpt 2 mul 0 V
  hpt neg vpt 1.62 mul V closepath stroke } def
/TriDE { stroke [] 0 setdash vpt 1.12 mul sub M
  hpt neg vpt 1.62 mul V
  hpt 2 mul 0 V
  hpt neg vpt -1.62 mul V closepath stroke } def
/PentE { stroke [] 0 setdash gsave
  translate 0 hpt M 4 {72 rotate 0 hpt L} repeat
  closepath stroke grestore } def
/CircE { stroke [] 0 setdash 
  hpt 0 360 arc stroke } def
/Opaque { gsave closepath 1 setgray fill grestore 0 setgray closepath } def
/DiaW { stroke [] 0 setdash vpt add M
  hpt neg vpt neg V hpt vpt neg V
  hpt vpt V hpt neg vpt V Opaque stroke } def
/BoxW { stroke [] 0 setdash exch hpt sub exch vpt add M
  0 vpt2 neg V hpt2 0 V 0 vpt2 V
  hpt2 neg 0 V Opaque stroke } def
/TriUW { stroke [] 0 setdash vpt 1.12 mul add M
  hpt neg vpt -1.62 mul V
  hpt 2 mul 0 V
  hpt neg vpt 1.62 mul V Opaque stroke } def
/TriDW { stroke [] 0 setdash vpt 1.12 mul sub M
  hpt neg vpt 1.62 mul V
  hpt 2 mul 0 V
  hpt neg vpt -1.62 mul V Opaque stroke } def
/PentW { stroke [] 0 setdash gsave
  translate 0 hpt M 4 {72 rotate 0 hpt L} repeat
  Opaque stroke grestore } def
/CircW { stroke [] 0 setdash 
  hpt 0 360 arc Opaque stroke } def
/BoxFill { gsave Rec 1 setgray fill grestore } def
/BoxColFill {
  gsave Rec
  /Fillden exch def
  currentrgbcolor
  /ColB exch def /ColG exch def /ColR exch def
  /ColR ColR Fillden mul Fillden sub 1 add def
  /ColG ColG Fillden mul Fillden sub 1 add def
  /ColB ColB Fillden mul Fillden sub 1 add def
  ColR ColG ColB setrgbcolor
  fill grestore } def
%
% PostScript Level 1 Pattern Fill routine
% Usage: x y w h s a XX PatternFill
%	x,y = lower left corner of box to be filled
%	w,h = width and height of box
%	  a = angle in degrees between lines and x-axis
%	 XX = 0/1 for no/yes cross-hatch
%
/PatternFill { gsave /PFa [ 9 2 roll ] def
    PFa 0 get PFa 2 get 2 div add PFa 1 get PFa 3 get 2 div add translate
    PFa 2 get -2 div PFa 3 get -2 div PFa 2 get PFa 3 get Rec
    gsave 1 setgray fill grestore clip
    currentlinewidth 0.5 mul setlinewidth
    /PFs PFa 2 get dup mul PFa 3 get dup mul add sqrt def
    0 0 M PFa 5 get rotate PFs -2 div dup translate
	0 1 PFs PFa 4 get div 1 add floor cvi
	{ PFa 4 get mul 0 M 0 PFs V } for
    0 PFa 6 get ne {
	0 1 PFs PFa 4 get div 1 add floor cvi
	{ PFa 4 get mul 0 2 1 roll M PFs 0 V } for
    } if
    stroke grestore } def
%
/Symbol-Oblique /Symbol findfont [1 0 .167 1 0 0] makefont
dup length dict begin {1 index /FID eq {pop pop} {def} ifelse} forall
currentdict end definefont pop
/MFshow {
   { dup 5 get 3 ge
     { 5 get 3 eq {gsave} {grestore} ifelse }
     {dup dup 0 get findfont exch 1 get scalefont setfont
     [ currentpoint ] exch dup 2 get 0 exch R dup 5 get 2 ne {dup dup 6
     get exch 4 get {show} {stringwidth pop 0 R} ifelse }if dup 5 get 0 eq
     {dup 3 get {2 get neg 0 exch R pop} {pop aload pop M} ifelse} {dup 5
     get 1 eq {dup 2 get exch dup 3 get exch 6 get stringwidth pop -2 div
     dup 0 R} {dup 6 get stringwidth pop -2 div 0 R 6 get
     show 2 index {aload pop M neg 3 -1 roll neg R pop pop} {pop pop pop
     pop aload pop M} ifelse }ifelse }ifelse }
     ifelse }
   forall} bind def
/MFwidth {0 exch {dup 3 get{dup dup 0 get findfont exch 1 get scalefont
     setfont 6 get stringwidth pop add} {pop} ifelse} forall} bind def
/MLshow { currentpoint stroke M
  0 exch R MFshow } bind def
/MRshow { currentpoint stroke M
  exch dup MFwidth neg 3 -1 roll R MFshow } def
/MCshow { currentpoint stroke M
  exch dup MFwidth -2 div 3 -1 roll R MFshow } def
end
%%EndProlog
%%Page: 1 1
gnudict begin
gsave
50 50 translate
0.100 0.100 scale
90 rotate
0 -5040 translate
0 setgray
newpath
(Helvetica) findfont 140 scalefont setfont
1.000 UL
LTb
630 420 M
63 0 V
4829 0 R
-63 0 V
stroke
546 420 M
gsave 0 setgray
[ [(Helvetica) 140.0 0.0 true true 0 ( 0)]
] -46.7 MRshow
grestore
1.000 UL
LTb
630 501 M
31 0 V
4861 0 R
-31 0 V
630 582 M
31 0 V
4861 0 R
-31 0 V
630 663 M
31 0 V
4861 0 R
-31 0 V
630 744 M
31 0 V
4861 0 R
-31 0 V
630 825 M
63 0 V
4829 0 R
-63 0 V
stroke
546 825 M
gsave 0 setgray
[ [(Helvetica) 140.0 0.0 true true 0 ( 10)]
] -46.7 MRshow
grestore
1.000 UL
LTb
630 906 M
31 0 V
4861 0 R
-31 0 V
630 987 M
31 0 V
4861 0 R
-31 0 V
630 1068 M
31 0 V
4861 0 R
-31 0 V
630 1149 M
31 0 V
4861 0 R
-31 0 V
630 1230 M
63 0 V
4829 0 R
-63 0 V
stroke
546 1230 M
gsave 0 setgray
[ [(Helvetica) 140.0 0.0 true true 0 ( 20)]
] -46.7 MRshow
grestore
1.000 UL
LTb
630 1311 M
31 0 V
4861 0 R
-31 0 V
630 1392 M
31 0 V
4861 0 R
-31 0 V
630 1473 M
31 0 V
4861 0 R
-31 0 V
630 1554 M
31 0 V
4861 0 R
-31 0 V
630 1636 M
63 0 V
4829 0 R
-63 0 V
stroke
546 1636 M
gsave 0 setgray
[ [(Helvetica) 140.0 0.0 true true 0 ( 30)]
] -46.7 MRshow
grestore
1.000 UL
LTb
630 1717 M
31 0 V
4861 0 R
-31 0 V
630 1798 M
31 0 V
4861 0 R
-31 0 V
630 1879 M
31 0 V
4861 0 R
-31 0 V
630 1960 M
31 0 V
4861 0 R
-31 0 V
630 2041 M
63 0 V
4829 0 R
-63 0 V
stroke
546 2041 M
gsave 0 setgray
[ [(Helvetica) 140.0 0.0 true true 0 ( 40)]
] -46.7 MRshow
grestore
1.000 UL
LTb
630 2122 M
31 0 V
4861 0 R
-31 0 V
630 2203 M
31 0 V
4861 0 R
-31 0 V
630 2284 M
31 0 V
4861 0 R
-31 0 V
630 2365 M
31 0 V
4861 0 R
-31 0 V
630 2446 M
63 0 V
4829 0 R
-63 0 V
stroke
546 2446 M
gsave 0 setgray
[ [(Helvetica) 140.0 0.0 true true 0 ( 50)]
] -46.7 MRshow
grestore
1.000 UL
LTb
630 2527 M
31 0 V
4861 0 R
-31 0 V
630 2608 M
31 0 V
4861 0 R
-31 0 V
630 2689 M
31 0 V
4861 0 R
-31 0 V
630 2770 M
31 0 V
4861 0 R
-31 0 V
630 2851 M
63 0 V
4829 0 R
-63 0 V
stroke
546 2851 M
gsave 0 setgray
[ [(Helvetica) 140.0 0.0 true true 0 ( 60)]
] -46.7 MRshow
grestore
1.000 UL
LTb
630 2932 M
31 0 V
4861 0 R
-31 0 V
630 3013 M
31 0 V
4861 0 R
-31 0 V
630 3094 M
31 0 V
4861 0 R
-31 0 V
630 3175 M
31 0 V
4861 0 R
-31 0 V
630 3256 M
63 0 V
4829 0 R
-63 0 V
stroke
546 3256 M
gsave 0 setgray
[ [(Helvetica) 140.0 0.0 true true 0 ( 70)]
] -46.7 MRshow
grestore
1.000 UL
LTb
630 3337 M
31 0 V
4861 0 R
-31 0 V
630 3418 M
31 0 V
4861 0 R
-31 0 V
630 3499 M
31 0 V
4861 0 R
-31 0 V
630 3580 M
31 0 V
4861 0 R
-31 0 V
630 3661 M
63 0 V
4829 0 R
-63 0 V
stroke
546 3661 M
gsave 0 setgray
[ [(Helvetica) 140.0 0.0 true true 0 ( 80)]
] -46.7 MRshow
grestore
1.000 UL
LTb
630 3742 M
31 0 V
4861 0 R
-31 0 V
630 3823 M
31 0 V
4861 0 R
-31 0 V
1206 420 M
0 63 V
0 3381 R
0 -63 V
stroke
1206 280 M
gsave 0 setgray
[ [(Helvetica) 140.0 0.0 true true 0 ( 5)]
] -46.7 MCshow
grestore
1.000 UL
LTb
1925 420 M
0 63 V
0 3381 R
0 -63 V
stroke
1925 280 M
gsave 0 setgray
[ [(Helvetica) 140.0 0.0 true true 0 ( 10)]
] -46.7 MCshow
grestore
1.000 UL
LTb
2644 420 M
0 63 V
0 3381 R
0 -63 V
stroke
2644 280 M
gsave 0 setgray
[ [(Helvetica) 140.0 0.0 true true 0 ( 15)]
] -46.7 MCshow
grestore
1.000 UL
LTb
3364 420 M
0 63 V
0 3381 R
0 -63 V
stroke
3364 280 M
gsave 0 setgray
[ [(Helvetica) 140.0 0.0 true true 0 ( 20)]
] -46.7 MCshow
grestore
1.000 UL
LTb
4083 420 M
0 63 V
0 3381 R
0 -63 V
stroke
4083 280 M
gsave 0 setgray
[ [(Helvetica) 140.0 0.0 true true 0 ( 25)]
] -46.7 MCshow
grestore
1.000 UL
LTb
4803 420 M
0 63 V
0 3381 R
0 -63 V
stroke
4803 280 M
gsave 0 setgray
[ [(Helvetica) 140.0 0.0 true true 0 ( 30)]
] -46.7 MCshow
grestore
1.000 UL
LTb
5522 420 M
0 63 V
0 3381 R
0 -63 V
stroke
5522 280 M
gsave 0 setgray
[ [(Helvetica) 140.0 0.0 true true 0 ( 35)]
] -46.7 MCshow
grestore
1.000 UL
LTb
1.000 UL
LTb
630 420 M
4892 0 V
0 3444 V
-4892 0 V
630 420 L
LTb
140 2142 M
gsave 0 setgray
currentpoint gsave translate 90 rotate 0 0 moveto
[ [(Helvetica) 140.0 0.0 true true 0 (latency\(in seconds\))]
] -46.7 MCshow
grestore
grestore
LTb
3076 70 M
gsave 0 setgray
[ [(Helvetica) 140.0 0.0 true true 0 (program image size \(KB\))]
] -46.7 MCshow
grestore
1.000 UP
1.000 UP
1.000 UL
LT0
LTb
2310 3731 M
gsave 0 setgray
[ [(Helvetica) 140.0 0.0 true true 0 (original Deluge)]
] -46.7 MRshow
grestore
LT0
2394 3731 M
399 0 V
-399 31 R
0 -62 V
399 62 R
0 -62 V
928 1060 M
442 237 V
442 232 V
442 252 V
442 191 V
442 212 V
442 216 V
442 230 V
442 222 V
442 235 V
442 199 V
928 953 M
0 214 V
897 953 M
62 0 V
-62 214 R
62 0 V
411 38 R
0 183 V
-31 -183 R
62 0 V
-62 183 R
62 0 V
411 27 R
0 228 V
-31 -228 R
62 0 V
-62 228 R
62 0 V
411 -16 R
0 307 V
-31 -307 R
62 0 V
-62 307 R
62 0 V
411 -111 R
0 298 V
-31 -298 R
62 0 V
-62 298 R
62 0 V
411 -123 R
0 373 V
-31 -373 R
62 0 V
-62 373 R
62 0 V
411 -171 R
0 400 V
-31 -400 R
62 0 V
-62 400 R
62 0 V
411 -165 R
0 389 V
-31 -389 R
62 0 V
-62 389 R
62 0 V
411 -191 R
0 439 V
-31 -439 R
62 0 V
-62 439 R
62 0 V
411 -230 R
0 489 V
-31 -489 R
62 0 V
-62 489 R
62 0 V
411 -291 R
0 492 V
-31 -492 R
62 0 V
-62 492 R
62 0 V
928 1060 Crs
1370 1297 Crs
1812 1529 Crs
2254 1781 Crs
2696 1972 Crs
3138 2184 Crs
3580 2400 Crs
4022 2630 Crs
4464 2852 Crs
4906 3087 Crs
5348 3286 Crs
2593 3731 Crs
1.000 UP
1.000 UL
LT1
LTb
2310 3591 M
gsave 0 setgray
[ [(Helvetica) 140.0 0.0 true true 0 (secure Deluge)]
] -46.7 MRshow
grestore
LT1
2394 3591 M
399 0 V
-399 31 R
0 -62 V
399 62 R
0 -62 V
928 1178 M
442 226 V
442 231 V
442 224 V
442 218 V
442 232 V
442 232 V
442 237 V
442 235 V
442 217 V
442 241 V
928 1057 M
0 243 V
897 1057 M
62 0 V
-62 243 R
62 0 V
411 -4 R
0 216 V
-31 -216 R
62 0 V
-62 216 R
62 0 V
411 21 R
0 204 V
-31 -204 R
62 0 V
-62 204 R
62 0 V
411 33 R
0 178 V
-31 -178 R
62 0 V
-62 178 R
62 0 V
411 18 R
0 221 V
-31 -221 R
62 0 V
-62 221 R
62 0 V
411 6 R
0 233 V
-31 -233 R
62 0 V
-62 233 R
62 0 V
411 -10 R
0 250 V
-31 -250 R
62 0 V
-62 250 R
62 0 V
411 -13 R
0 249 V
-31 -249 R
62 0 V
-62 249 R
62 0 V
411 -19 R
0 260 V
-31 -260 R
62 0 V
-62 260 R
62 0 V
411 -40 R
0 255 V
-31 -255 R
62 0 V
-62 255 R
62 0 V
411 -38 R
0 302 V
-31 -302 R
62 0 V
-62 302 R
62 0 V
928 1178 Star
1370 1404 Star
1812 1635 Star
2254 1859 Star
2696 2077 Star
3138 2309 Star
3580 2541 Star
4022 2778 Star
4464 3013 Star
4906 3230 Star
5348 3471 Star
2593 3591 Star
1.000 UP
1.000 UL
LT0
LTb
2310 3451 M
gsave 0 setgray
[ [(Helvetica) 140.0 0.0 true true 0 (confidential Deluge)]
] -46.7 MRshow
grestore
LT0
2394 3451 M
399 0 V
-399 31 R
0 -62 V
399 62 R
0 -62 V
928 1303 M
442 210 V
442 220 V
442 226 V
442 233 V
442 225 V
442 233 V
442 227 V
442 232 V
442 232 V
442 244 V
928 1209 M
0 187 V
897 1209 M
62 0 V
-62 187 R
62 0 V
411 25 R
0 185 V
-31 -185 R
62 0 V
-62 185 R
62 0 V
411 32 R
0 190 V
-31 -190 R
62 0 V
-62 190 R
62 0 V
411 42 R
0 177 V
-31 -177 R
62 0 V
-62 177 R
62 0 V
411 56 R
0 179 V
-31 -179 R
62 0 V
-62 179 R
62 0 V
411 33 R
0 205 V
-31 -205 R
62 0 V
-62 205 R
62 0 V
411 29 R
0 201 V
-31 -201 R
62 0 V
-62 201 R
62 0 V
411 32 R
0 190 V
-31 -190 R
62 0 V
-62 190 R
62 0 V
411 32 R
0 210 V
-31 -210 R
62 0 V
-62 210 R
62 0 V
411 20 R
0 214 V
-31 -214 R
62 0 V
-62 214 R
62 0 V
411 33 R
0 208 V
-31 -208 R
62 0 V
-62 208 R
62 0 V
928 1303 Box
1370 1513 Box
1812 1733 Box
2254 1959 Box
2696 2192 Box
3138 2417 Box
3580 2650 Box
4022 2877 Box
4464 3109 Box
4906 3341 Box
5348 3585 Box
2593 3451 Box
1.000 UL
LTb
630 420 M
4892 0 V
0 3444 V
-4892 0 V
630 420 L
1.000 UP
stroke
grestore
end
showpage
%%Trailer
%%DocumentFonts: Helvetica
%%Pages: 1
