\relax 
\citation{SWATT_2004}
\citation{SCUBA_2006}
\citation{Tan_trap_2011,Node_compromise_2007-Krauss}
\citation{trusted_computing_summary}
\citation{Tan_trap_2011}
\citation{PIV-2015}
\@writefile{toc}{\contentsline {section}{\numberline {1}Introduction}{1}}
\@writefile{toc}{\contentsline {section}{\numberline {2}Related Work}{1}}
\newlabel{sec::related_works}{{2}{1}}
\citation{C-FLAT}
\citation{cluster-head-selection-algorithm-survey}
\citation{Verifier-based_attack}
\@writefile{toc}{\contentsline {section}{\numberline {3}System, Threat Model $\&$ Our Contributions}{2}}
\newlabel{sec::system_threat_model}{{3}{2}}
\citation{SEDA_SWARM_2015,PIV-2015,SWATT_2004,SCUBA_2006,Tan_trap_2011}
\citation{OMAP-2011}
\citation{worm-hole-2006}
\@writefile{lof}{\contentsline {figure}{\numberline {1}{\ignorespaces General Remote Attestation process.}}{3}}
\newlabel{fig_remote_attestation_process}{{1}{3}}
\@writefile{toc}{\contentsline {section}{\numberline {4}Remote Attestation Design}{3}}
\newlabel{sec::design_implementation}{{4}{3}}
\citation{One-way_hash_chain_hu_2005}
\citation{PIV-2015}
\@writefile{toc}{\contentsline {subsection}{\numberline {4.1}Notations}{4}}
\@writefile{lot}{\contentsline {table}{\numberline {1}{\ignorespaces Notations. }}{4}}
\newlabel{tbl::notations}{{1}{4}}
\@writefile{toc}{\contentsline {subsection}{\numberline {4.2}Offline Stage}{4}}
\newlabel{sec::Offline_phase}{{4.2}{4}}
\citation{SEDA_SWARM_2015}
\@writefile{lof}{\contentsline {figure}{\numberline {2}{\ignorespaces One-way hash chain.}}{5}}
\newlabel{fig_one_way_hashchain}{{2}{5}}
\@writefile{lof}{\contentsline {figure}{\numberline {3}{\ignorespaces Program flash distribution in devices without TPMs: the rest of the free space is filled with unique random incompressible bits. Node A and Node B are filled with different bit pattern in the free space i.e., $S_{A1} \not =S_{B1}$ and $S_{A2} \not =S_{B2}$}}{5}}
\newlabel{fig_programflash_freespace}{{3}{5}}
\@writefile{toc}{\contentsline {subsection}{\numberline {4.3}Online Stage}{5}}
\newlabel{sec::online_phase}{{4.3}{5}}
\@writefile{lof}{\contentsline {figure}{\numberline {4}{\ignorespaces The remote attestation structure in heterogeneous embedded devices: Nodes A, B and C are equipped with TPMs while node$_{A/B/C_n}$ are without TPM. }}{6}}
\newlabel{fig_Network_structure}{{4}{6}}
\@writefile{loa}{\contentsline {algorithm}{\numberline {1}{\ignorespaces The $i^{th}$ Remote Attestation for TPM-enabled devices:Node A (TPM-enabled or base station) is the verifier and node B (TPM-enabled) is the prover}}{6}}
\newlabel{algorithm_TPM_enabled}{{1}{6}}
\newlabel{line_challenge_to_TPM}{{1}{6}}
\newlabel{line_decryption_nounce}{{3}{6}}
\newlabel{Hash_chain_authentication}{{4}{6}}
\newlabel{ignore_request}{{5}{6}}
\newlabel{line_decryption_code_image}{{7}{6}}
\newlabel{line_hash_key}{{9}{6}}
\newlabel{line_response_back}{{10}{6}}
\newlabel{line_sealed_hash_key}{{11}{6}}
\newlabel{line_attestation_verification}{{13}{6}}
\newlabel{line_attestation_timeout}{{26}{6}}
\citation{OMAP-2011}
\citation{attestation_property_2009}
\@writefile{loa}{\contentsline {algorithm}{\numberline {2}{\ignorespaces The $i^{th}$ Remote Attestation for non-TPM devices:Node A (TPM-enabled base-station) is the verifier and node B(non-TPM) is the prover}}{7}}
\newlabel{algorithm_non_TPM}{{2}{7}}
\newlabel{line_challenge_to_prover}{{1}{7}}
\newlabel{line_decryption_nounce_non_TPM}{{2}{7}}
\newlabel{Hash_chain_authentication_non_TPM}{{3}{7}}
\newlabel{ignore_request_non_TPM}{{4}{7}}
\newlabel{line_attestation_verification_non_TPM}{{7}{7}}
\newlabel{line_hash_key_non_TPM}{{8}{7}}
\newlabel{line_attestation_timeout_non_TPM}{{18}{7}}
\@writefile{toc}{\contentsline {section}{\numberline {5}Security Analysis}{7}}
\newlabel{sec::security_analysis}{{5}{7}}
\@writefile{toc}{\contentsline {subsection}{\numberline {5.1}Man-In-the-Middle Attack (MIM Attack)}{7}}
\newlabel{sec::MIM Attack}{{5.1}{7}}
\citation{worm-hole-2006}
\@writefile{loa}{\contentsline {algorithm}{\numberline {3}{\ignorespaces Device B is disconnected/connected from the networks after the $i^{th}$ successful attestations for $k$ times. Device A is its verifier. }}{8}}
\newlabel{algorithm_ ON_OFF_Line}{{3}{8}}
\newlabel{line_disconnect}{{1}{8}}
\newlabel{line_connect}{{13}{8}}
\@writefile{toc}{\contentsline {subsection}{\numberline {5.2}Wormhole Attack}{8}}
\newlabel{sec::Wormhole Attack}{{5.2}{8}}
\newlabel{fig_rainbow_attack}{{5(a)}{9}}
\newlabel{sub@fig_rainbow_attack}{{(a)}{9}}
\newlabel{fig_interfernece_attack}{{5(b)}{9}}
\newlabel{sub@fig_interfernece_attack}{{(b)}{9}}
\@writefile{lof}{\contentsline {figure}{\numberline {5}{\ignorespaces Man-in-the-Middle attacks.}}{9}}
\@writefile{lof}{\contentsline {subfigure}{\numberline{(a)}{\ignorespaces {Rainbow Attack.}}}{9}}
\@writefile{lof}{\contentsline {subfigure}{\numberline{(b)}{\ignorespaces {Interference Attack.}}}{9}}
\newlabel{fig_OMAP_attacks}{{5}{9}}
\citation{Verifier-based_attack}
\@writefile{lof}{\contentsline {figure}{\numberline {6}{\ignorespaces Wormhole attack: two adversaries establish a low-latency tunnel to exchange the packets they overhead for replay.}}{10}}
\newlabel{fig_wormhole}{{6}{10}}
\@writefile{toc}{\contentsline {subsection}{\numberline {5.3}Time-Of-Check-To-Time-Of-Use (TOCTTOU) Attack}{10}}
\newlabel{sec::TOCTTOU_attack}{{5.3}{10}}
\citation{TPM_emulator_08}
\citation{TrouSerS}
\citation{IEEE_raspberry_pi}
\@writefile{toc}{\contentsline {subsection}{\numberline {5.4}Verifier-based DoS Attack}{11}}
\newlabel{sec::Verifier-DOS}{{5.4}{11}}
\@writefile{toc}{\contentsline {section}{\numberline {6}Implementation Details}{11}}
\newlabel{sec::implementation}{{6}{11}}
\citation{bouncycastle}
\citation{Verifier-based_attack}
\citation{SHA-1}
\citation{SHA-1}
\newlabel{fig_verifier_execution_time_TPM}{{7(a)}{13}}
\newlabel{sub@fig_verifier_execution_time_TPM}{{(a)}{13}}
\newlabel{fig_prover_execution_time_TPM}{{7(b)}{13}}
\newlabel{sub@fig_prover_execution_time_TPM}{{(b)}{13}}
\@writefile{lof}{\contentsline {figure}{\numberline {7}{\ignorespaces Remote attestation command execution times in TPM-enabled devices. }}{13}}
\@writefile{lof}{\contentsline {subfigure}{\numberline{(a)}{\ignorespaces {Verifier.}}}{13}}
\@writefile{lof}{\contentsline {subfigure}{\numberline{(b)}{\ignorespaces {Prover.}}}{13}}
\newlabel{fig_execution_time}{{7}{13}}
\@writefile{toc}{\contentsline {section}{\numberline {7}Performance Evaluation}{13}}
\newlabel{sec::results}{{7}{13}}
\@writefile{toc}{\contentsline {subsection}{\numberline {7.1}Execution Time}{13}}
\newlabel{subsec::execution_time}{{7.1}{13}}
\@writefile{toc}{\contentsline {subsection}{\numberline {7.2}Communication Overhead}{13}}
\newlabel{subsec::communication_overhead}{{7.2}{13}}
\citation{SEDA_SWARM_2015}
\citation{SCUBA_2006}
\citation{SEDA_SWARM_2015}
\citation{Tan_trap_2011}
\citation{TPM_emulator_08}
\citation{SEDA_SWARM_2015}
\citation{Tan_trap_2011}
\citation{PIV-2015}
\citation{SCUBA_2006}
\citation{SEDA_SWARM_2015}
\citation{PIV-2015}
\citation{Tan_trap_2011}
\@writefile{toc}{\contentsline {subsection}{\numberline {7.3}Comparison with Existing Attestation Protocols}{14}}
\newlabel{subsec::comparision_test}{{7.3}{14}}
\bibstyle{abbrv}
\bibdata{heteregenuous_networks}
\bibcite{SHA-1}{1}
\bibcite{TrouSerS}{2}
\bibcite{bouncycastle}{3}
\bibcite{cluster-head-selection-algorithm-survey}{4}
\bibcite{C-FLAT}{5}
\bibcite{PIV-2015}{6}
\bibcite{IEEE_raspberry_pi}{7}
\bibcite{SEDA_SWARM_2015}{8}
\@writefile{lot}{\contentsline {table}{\numberline {2}{\ignorespaces Comparison of this protocol, SCUBA\cite  {SCUBA_2006}, SEDA\cite  {SEDA_SWARM_2015}, PIV\cite  {PIV-2015} and TRAP\cite  {Tan_trap_2011}. }}{15}}
\newlabel{tbl::compairison}{{2}{15}}
\@writefile{toc}{\contentsline {section}{\numberline {8}Conclusions}{15}}
\newlabel{sec::conclusions}{{8}{15}}
\bibcite{Verifier-based_attack}{9}
\bibcite{trusted_computing_summary}{10}
\bibcite{One-way_hash_chain_hu_2005}{11}
\bibcite{worm-hole-2006}{12}
\bibcite{attestation_property_2009}{13}
\bibcite{Node_compromise_2007-Krauss}{14}
\bibcite{SCUBA_2006}{15}
\bibcite{SWATT_2004}{16}
\bibcite{OMAP-2011}{17}
\bibcite{TPM_emulator_08}{18}
\bibcite{Tan_trap_2011}{19}
